%!PS-Adobe-3.0
%%BoundingBox: 38 24 574 768
%%Title: Listing.ps
%%For: Wesley Mackey
%%Creator: GNU Enscript 1.6.6
%%CreationDate: Fri Apr  1 16:43:14 2016
%%Orientation: Portrait
%%Pages: (atend)
%%DocumentMedia: Letter 612 792 0 () ()
%%DocumentNeededResources: (atend)
%%EndComments
%%BeginProlog
%%BeginResource: procset Enscript-Prolog 1.6 6
%
% Procedures.
%

/_S {	% save current state
  /_s save def
} def
/_R {	% restore from saved state
  _s restore
} def

/S {	% showpage protecting gstate
  gsave
  showpage
  grestore
} bind def

/MF {	% fontname newfontname -> -	make a new encoded font
  /newfontname exch def
  /fontname exch def

  /fontdict fontname findfont def
  /newfont fontdict maxlength dict def

  fontdict {
    exch
    dup /FID eq {
      % skip FID pair
      pop pop
    } {
      % copy to the new font dictionary
      exch newfont 3 1 roll put
    } ifelse
  } forall

  newfont /FontName newfontname put

  % insert only valid encoding vectors
  encoding_vector length 256 eq {
    newfont /Encoding encoding_vector put
  } if

  newfontname newfont definefont pop
} def

/MF_PS { % fontname newfontname -> -	make a new font preserving its enc
  /newfontname exch def
  /fontname exch def

  /fontdict fontname findfont def
  /newfont fontdict maxlength dict def

  fontdict {
    exch
    dup /FID eq {
      % skip FID pair
      pop pop
    } {
      % copy to the new font dictionary
      exch newfont 3 1 roll put
    } ifelse
  } forall

  newfont /FontName newfontname put

  newfontname newfont definefont pop
} def

/SF { % fontname width height -> -	set a new font
  /height exch def
  /width exch def

  findfont
  [width 0 0 height 0 0] makefont setfont
} def

/SUF { % fontname width height -> -	set a new user font
  /height exch def
  /width exch def

  /F-gs-user-font MF
  /F-gs-user-font width height SF
} def

/SUF_PS { % fontname width height -> -	set a new user font preserving its enc
  /height exch def
  /width exch def

  /F-gs-user-font MF_PS
  /F-gs-user-font width height SF
} def

/M {moveto} bind def
/s {show} bind def

/Box {	% x y w h -> -			define box path
  /d_h exch def /d_w exch def /d_y exch def /d_x exch def
  d_x d_y  moveto
  d_w 0 rlineto
  0 d_h rlineto
  d_w neg 0 rlineto
  closepath
} def

/bgs {	% x y height blskip gray str -> -	show string with bg color
  /str exch def
  /gray exch def
  /blskip exch def
  /height exch def
  /y exch def
  /x exch def

  gsave
    x y blskip sub str stringwidth pop height Box
    gray setgray
    fill
  grestore
  x y M str s
} def

/bgcs { % x y height blskip red green blue str -> -  show string with bg color
  /str exch def
  /blue exch def
  /green exch def
  /red exch def
  /blskip exch def
  /height exch def
  /y exch def
  /x exch def

  gsave
    x y blskip sub str stringwidth pop height Box
    red green blue setrgbcolor
    fill
  grestore
  x y M str s
} def

% Highlight bars.
/highlight_bars {	% nlines lineheight output_y_margin gray -> -
  gsave
    setgray
    /ymarg exch def
    /lineheight exch def
    /nlines exch def

    % This 2 is just a magic number to sync highlight lines to text.
    0 d_header_y ymarg sub 2 sub translate

    /cw d_output_w cols div def
    /nrows d_output_h ymarg 2 mul sub lineheight div cvi def

    % for each column
    0 1 cols 1 sub {
      cw mul /xp exch def

      % for each rows
      0 1 nrows 1 sub {
        /rn exch def
        rn lineheight mul neg /yp exch def
        rn nlines idiv 2 mod 0 eq {
	  % Draw highlight bar.  4 is just a magic indentation.
	  xp 4 add yp cw 8 sub lineheight neg Box fill
	} if
      } for
    } for

  grestore
} def

% Line highlight bar.
/line_highlight {	% x y width height gray -> -
  gsave
    /gray exch def
    Box gray setgray fill
  grestore
} def

% Column separator lines.
/column_lines {
  gsave
    .1 setlinewidth
    0 d_footer_h translate
    /cw d_output_w cols div def
    1 1 cols 1 sub {
      cw mul 0 moveto
      0 d_output_h rlineto stroke
    } for
  grestore
} def

% Column borders.
/column_borders {
  gsave
    .1 setlinewidth
    0 d_footer_h moveto
    0 d_output_h rlineto
    d_output_w 0 rlineto
    0 d_output_h neg rlineto
    closepath stroke
  grestore
} def

% Do the actual underlay drawing
/draw_underlay {
  ul_style 0 eq {
    ul_str true charpath stroke
  } {
    ul_str show
  } ifelse
} def

% Underlay
/underlay {	% - -> -
  gsave
    0 d_page_h translate
    d_page_h neg d_page_w atan rotate

    ul_gray setgray
    ul_font setfont
    /dw d_page_h dup mul d_page_w dup mul add sqrt def
    ul_str stringwidth pop dw exch sub 2 div ul_h_ptsize -2 div moveto
    draw_underlay
  grestore
} def

/user_underlay {	% - -> -
  gsave
    ul_x ul_y translate
    ul_angle rotate
    ul_gray setgray
    ul_font setfont
    0 0 ul_h_ptsize 2 div sub moveto
    draw_underlay
  grestore
} def

% Page prefeed
/page_prefeed {		% bool -> -
  statusdict /prefeed known {
    statusdict exch /prefeed exch put
  } {
    pop
  } ifelse
} def

% Wrapped line markers
/wrapped_line_mark {	% x y charwith charheight type -> -
  /type exch def
  /h exch def
  /w exch def
  /y exch def
  /x exch def

  type 2 eq {
    % Black boxes (like TeX does)
    gsave
      0 setlinewidth
      x w 4 div add y M
      0 h rlineto w 2 div 0 rlineto 0 h neg rlineto
      closepath fill
    grestore
  } {
    type 3 eq {
      % Small arrows
      gsave
        .2 setlinewidth
        x w 2 div add y h 2 div add M
        w 4 div 0 rlineto
        x w 4 div add y lineto stroke

        x w 4 div add w 8 div add y h 4 div add M
        x w 4 div add y lineto
	w 4 div h 8 div rlineto stroke
      grestore
    } {
      % do nothing
    } ifelse
  } ifelse
} def

% EPSF import.

/BeginEPSF {
  /b4_Inc_state save def    		% Save state for cleanup
  /dict_count countdictstack def	% Count objects on dict stack
  /op_count count 1 sub def		% Count objects on operand stack
  userdict begin
  /showpage { } def
  0 setgray 0 setlinecap
  1 setlinewidth 0 setlinejoin
  10 setmiterlimit [ ] 0 setdash newpath
  /languagelevel where {
    pop languagelevel
    1 ne {
      false setstrokeadjust false setoverprint
    } if
  } if
} bind def

/EndEPSF {
  count op_count sub { pos } repeat	% Clean up stacks
  countdictstack dict_count sub { end } repeat
  b4_Inc_state restore
} bind def

% Check PostScript language level.
/languagelevel where {
  pop /gs_languagelevel languagelevel def
} {
  /gs_languagelevel 1 def
} ifelse
%%EndResource
%%BeginResource: procset Enscript-Encoding-88591 1.6 6
/encoding_vector [
/.notdef      	/.notdef      	/.notdef      	/.notdef      	
/.notdef      	/.notdef      	/.notdef      	/.notdef      	
/.notdef      	/.notdef      	/.notdef      	/.notdef      	
/.notdef      	/.notdef      	/.notdef      	/.notdef      	
/.notdef      	/.notdef      	/.notdef      	/.notdef      	
/.notdef      	/.notdef      	/.notdef      	/.notdef      	
/.notdef      	/.notdef      	/.notdef      	/.notdef      	
/.notdef      	/.notdef      	/.notdef      	/.notdef      	
/space        	/exclam       	/quotedbl     	/numbersign   	
/dollar       	/percent      	/ampersand    	/quoteright   	
/parenleft    	/parenright   	/asterisk     	/plus         	
/comma        	/hyphen       	/period       	/slash        	
/zero         	/one          	/two          	/three        	
/four         	/five         	/six          	/seven        	
/eight        	/nine         	/colon        	/semicolon    	
/less         	/equal        	/greater      	/question     	
/at           	/A            	/B            	/C            	
/D            	/E            	/F            	/G            	
/H            	/I            	/J            	/K            	
/L            	/M            	/N            	/O            	
/P            	/Q            	/R            	/S            	
/T            	/U            	/V            	/W            	
/X            	/Y            	/Z            	/bracketleft  	
/backslash    	/bracketright 	/asciicircum  	/underscore   	
/quoteleft    	/a            	/b            	/c            	
/d            	/e            	/f            	/g            	
/h            	/i            	/j            	/k            	
/l            	/m            	/n            	/o            	
/p            	/q            	/r            	/s            	
/t            	/u            	/v            	/w            	
/x            	/y            	/z            	/braceleft    	
/bar          	/braceright   	/tilde        	/.notdef      	
/.notdef      	/.notdef      	/.notdef      	/.notdef      	
/.notdef      	/.notdef      	/.notdef      	/.notdef      	
/.notdef      	/.notdef      	/.notdef      	/.notdef      	
/.notdef      	/.notdef      	/.notdef      	/.notdef      	
/.notdef      	/.notdef      	/.notdef      	/.notdef      	
/.notdef      	/.notdef      	/.notdef      	/.notdef      	
/.notdef      	/.notdef      	/.notdef      	/.notdef      	
/.notdef      	/.notdef      	/.notdef      	/.notdef      	
/space        	/exclamdown   	/cent         	/sterling     	
/currency     	/yen          	/brokenbar    	/section      	
/dieresis     	/copyright    	/ordfeminine  	/guillemotleft	
/logicalnot   	/hyphen       	/registered   	/macron       	
/degree       	/plusminus    	/twosuperior  	/threesuperior	
/acute        	/mu           	/paragraph    	/bullet       	
/cedilla      	/onesuperior  	/ordmasculine 	/guillemotright	
/onequarter   	/onehalf      	/threequarters	/questiondown 	
/Agrave       	/Aacute       	/Acircumflex  	/Atilde       	
/Adieresis    	/Aring        	/AE           	/Ccedilla     	
/Egrave       	/Eacute       	/Ecircumflex  	/Edieresis    	
/Igrave       	/Iacute       	/Icircumflex  	/Idieresis    	
/Eth          	/Ntilde       	/Ograve       	/Oacute       	
/Ocircumflex  	/Otilde       	/Odieresis    	/multiply     	
/Oslash       	/Ugrave       	/Uacute       	/Ucircumflex  	
/Udieresis    	/Yacute       	/Thorn        	/germandbls   	
/agrave       	/aacute       	/acircumflex  	/atilde       	
/adieresis    	/aring        	/ae           	/ccedilla     	
/egrave       	/eacute       	/ecircumflex  	/edieresis    	
/igrave       	/iacute       	/icircumflex  	/idieresis    	
/eth          	/ntilde       	/ograve       	/oacute       	
/ocircumflex  	/otilde       	/odieresis    	/divide       	
/oslash       	/ugrave       	/uacute       	/ucircumflex  	
/udieresis    	/yacute       	/thorn        	/ydieresis    	
] def
%%EndResource
%%EndProlog
%%BeginSetup
%%IncludeResource: font Courier-Bold
/HFpt_w 10 def
/HFpt_h 10 def
/Courier-Bold /HF-gs-font MF
/HF /HF-gs-font findfont [HFpt_w 0 0 HFpt_h 0 0] makefont def
/Courier-Bold /F-gs-font MF
/F-gs-font 11 11 SF
/#copies 1 def
% Pagedevice definitions:
gs_languagelevel 1 gt {
  <<
    /PageSize [612 792] 
  >> setpagedevice
} if
%%BeginResource: procset Enscript-Header-enscript-mycolor 1.6 6
%%IncludeResource: font Times-Bold
%%IncludeResource: font Times-Roman

% Fonts.
/Times-Bold /HeaderFont-Bold MF
/HeaderDateF /HeaderFont-Bold findfont 12 scalefont def

/Times-Roman /HeaderFont-Times MF
/HeaderHDRF /HeaderFont-Times findfont 14 scalefont def

/HeaderPageNumF /Helvetica-Bold findfont 28.8 scalefont def
/HeaderPageCountF /Helvetica-Bold findfont 18 scalefont def

/do_header {	% print enscript header
  gsave
    d_header_x d_header_y translate

    /dhw d_header_w 4 sub def

    /linecolor {0 0 0 setrgbcolor} bind def  % line color
    /txcolor   {0 0 0 setrgbcolor} bind def  % text color
    /fncolor   {0 0 0 setrgbcolor} bind def  % filename line color

    .5 setlinewidth

    % line across bottom of the header area
    linecolor
    0 0 moveto dhw 0 lineto

    % side boxes
    /sbw d_header_h 2 mul def	% side box width

    % left side box
    0 0 sbw d_header_h Box
    linecolor
    stroke

    % date/time in left box
    txcolor
    HeaderDateF setfont
    moddatestr dup stringwidth pop sbw exch sub 2 div
    d_header_h 2 div 2 add moveto show
    modtimestr dup stringwidth pop sbw exch sub 2 div
    d_header_h 5 div moveto show

    % right side box
    dhw sbw sub 0 sbw d_header_h Box
    linecolor
    stroke

    % get width of pagecount
    HeaderPageCountF setfont
    pagecountstr stringwidth pop

    txcolor
    HeaderPageNumF setfont
    pagenumstr stringwidth pop add  % add to width of pagecount
    sbw exch sub 2 div dhw sbw sub add
    d_header_h .2 mul moveto

    pagenumstr show

    HeaderPageCountF setfont
    pagecountstr show

    % filename
    fncolor
    HeaderHDRF setfont
    dhw fname stringwidth pop sub 2 div d_header_h 8 div moveto
    fname show

    % user supplied header string.
    user_header_p {
      /h d_header_h 8 div 5 mul def

      % HACK around a bug in enscript 1.6.0:
      % for some reason this is getting set to "(null)" and
      %
      user_header_center_str (\(null\)) eq {
        /user_header_center_str () def
      } if

      % Implement strict enscript compatibility.
      user_header_center_str () eq user_header_right_str () eq and {
        dhw user_header_left_str stringwidth pop sub 2 div
        h moveto user_header_left_str show
      } {
        sbw 5 add h moveto user_header_left_str show

        dhw user_header_center_str stringwidth pop sub 2 div
        h moveto user_header_center_str show

	dhw sbw sub 5 sub user_header_right_str stringwidth pop
	sub h moveto user_header_right_str show
      } ifelse
    } if

  grestore
} bind def
%%EndResource
/d_page_w 536 def
/d_page_h 744 def
/d_header_x 0 def
/d_header_y 708 def
/d_header_w 536 def
/d_header_h 36 def
/d_footer_x 0 def
/d_footer_y 0 def
/d_footer_w 536 def
/d_footer_h 0 def
/d_output_w 536 def
/d_output_h 708 def
/cols 1 def
%%EndSetup
%%Page: (1) 1
%%BeginPageSetup
_S
38 24 translate
/pagenum 1 def
/fname (expr-recdes.cpp) def
/fdir (.) def
/ftail (expr-recdes.cpp) def
% User defined strings:
/pagenumstr (1) def
/moddatestr (04/01/16) def
/pagecountstr (/6) def
/modtimestr (16:43:13) def
/user_header_p true def
/user_header_left_str ($cmps104a-wm/Examples/e00.expr-recdes/) def
/user_header_center_str () def
/user_header_right_str () def
/user_footer_p false def
%%EndPageSetup
column_borders
do_header
32.4 694 M (1:) s
52.2 694 M
(// $Id: expr-recdes.cpp,v 1.9 2016-04-01 16:43:06-07 - - $) s
32.4 682 M (2:) s
32.4 670 M (3:) s
52.2 670 M
(//) s
32.4 658 M (4:) s
52.2 658 M
(// A trivial hand-coded top-down recursive descent compiler for) s
32.4 646 M (5:) s
52.2 646 M
(// a simple language.  No leak checking.  Just crash on any) s
32.4 634 M (6:) s
52.2 634 M
(// syntax error.) s
32.4 622 M (7:) s
52.2 622 M
(//) s
32.4 610 M (8:) s
52.2 610 M
(// Context-free syntax.) s
32.4 598 M (9:) s
52.2 598 M
(// ->, {, }, |, ... are metasymbols) s
25.8 586 M (10:) s
52.2 586 M
(//) s
25.8 574 M (11:) s
52.2 574 M
(// program -> { expr ; }...) s
25.8 562 M (12:) s
52.2 562 M
(// expr    -> term { { + | - } term }...) s
25.8 550 M (13:) s
52.2 550 M
(// term    -> factor { { * | / } factor }...) s
25.8 538 M (14:) s
52.2 538 M
(// factor  -> \( expr \) | IDENT | NUMBER) s
25.8 526 M (15:) s
52.2 526 M
(//) s
25.8 514 M (16:) s
52.2 514 M
(// Lexical syntax.) s
25.8 502 M (17:) s
52.2 502 M
(// Using flex notation.) s
25.8 490 M (18:) s
52.2 490 M
(//) s
25.8 478 M (19:) s
52.2 478 M
(// IDENT   -> [A-Za-z][A-Za-z0-9]*) s
25.8 466 M (20:) s
52.2 466 M
(// NUMBER  -> [0-9]+) s
25.8 454 M (21:) s
52.2 454 M
(// COMMENT -> #.*) s
25.8 442 M (22:) s
52.2 442 M
(// WHITE   -> [ \\n]+) s
25.8 430 M (23:) s
52.2 430 M
(//) s
25.8 418 M (24:) s
25.8 406 M (25:) s
52.2 406 M
(#include <cassert>) s
25.8 394 M (26:) s
52.2 394 M
(#include <cctype>) s
25.8 382 M (27:) s
52.2 382 M
(#include <cstdlib>) s
25.8 370 M (28:) s
52.2 370 M
(#include <ios>) s
25.8 358 M (29:) s
52.2 358 M
(#include <iostream>) s
25.8 346 M (30:) s
52.2 346 M
(#include <string>) s
25.8 334 M (31:) s
52.2 334 M
(#include <unordered_map>) s
25.8 322 M (32:) s
52.2 322 M
(#include <vector>) s
25.8 310 M (33:) s
52.2 310 M
(using namespace std;) s
25.8 298 M (34:) s
25.8 286 M (35:) s
52.2 286 M
(enum { ENDFILE = 256, IDENT = 257, NUMBER = 258,) s
25.8 274 M (36:) s
52.2 274 M
(       ROOT = 259, NOSYMBOL = 260 };) s
25.8 262 M (37:) s
25.8 250 M (38:) s
52.2 250 M
(unordered_map<unsigned,string> symbol_names {) s
25.8 238 M (39:) s
52.2 238 M
(   {ENDFILE,  "ENDFILE"},) s
25.8 226 M (40:) s
52.2 226 M
(   {IDENT,    "IDENT"},) s
25.8 214 M (41:) s
52.2 214 M
(   {NUMBER,   "NUMBER"},) s
25.8 202 M (42:) s
52.2 202 M
(   {ROOT,     "ROOT"},) s
25.8 190 M (43:) s
52.2 190 M
(   {NOSYMBOL, "NOSYMBOL"},) s
25.8 178 M (44:) s
52.2 178 M
(};) s
25.8 166 M (45:) s
25.8 154 M (46:) s
52.2 154 M
(void print_symbol \(unsigned sym\) {) s
25.8 142 M (47:) s
52.2 142 M
(   cout << sym;) s
25.8 130 M (48:) s
52.2 130 M
(   const auto& isym = symbol_names.find \(sym\);) s
25.8 118 M (49:) s
52.2 118 M
(   if \(isym != symbol_names.cend\(\)\) {) s
25.8 106 M (50:) s
52.2 106 M
(      cout << "\(" << isym->second << "\)";) s
25.8 94 M (51:) s
52.2 94 M
(   }else if \(isgraph \(sym\)\) {) s
25.8 82 M (52:) s
52.2 82 M
(      cout << "\('" << static_cast<char> \(sym\) << "'\)";) s
25.8 70 M (53:) s
52.2 70 M
(   }) s
25.8 58 M (54:) s
52.2 58 M
(}) s
25.8 46 M (55:) s
_R
S
%%Page: (2) 2
%%BeginPageSetup
_S
38 24 translate
/pagenum 2 def
/fname (expr-recdes.cpp) def
/fdir (.) def
/ftail (expr-recdes.cpp) def
% User defined strings:
/pagenumstr (2) def
/moddatestr (04/01/16) def
/pagecountstr (/6) def
/modtimestr (16:43:13) def
/user_header_p true def
/user_header_left_str ($cmps104a-wm/Examples/e00.expr-recdes/) def
/user_header_center_str () def
/user_header_right_str () def
/user_footer_p false def
%%EndPageSetup
column_borders
do_header
25.8 694 M (56:) s
25.8 682 M (57:) s
52.2 682 M
(struct astree {) s
25.8 670 M (58:) s
52.2 670 M
(   unsigned symbol {};) s
25.8 658 M (59:) s
52.2 658 M
(   string lexeme;) s
25.8 646 M (60:) s
52.2 646 M
(   vector<astree*> children;) s
25.8 634 M (61:) s
52.2 634 M
(   void adopt \(astree* child\) { children.push_back \(child\); }) s
25.8 622 M (62:) s
52.2 622 M
(   astree \(int sym, const string& lex\): symbol\(sym\), lexeme\(lex\) {}) s
25.8 610 M (63:) s
52.2 610 M
(   ~astree\(\) { for \(auto child: children\) delete child; }) s
25.8 598 M (64:) s
52.2 598 M
(};) s
25.8 586 M (65:) s
25.8 574 M (66:) s
52.2 574 M
(void preorder_astree \(size_t depth, const astree* tree\) {) s
25.8 562 M (67:) s
52.2 562 M
(   for \(size_t count = 0; count < depth; ++count\) cout << "|  ";) s
25.8 550 M (68:) s
52.2 550 M
(   cout << "\\"" << tree->lexeme << "\\" ";) s
25.8 538 M (69:) s
52.2 538 M
(   print_symbol \(tree->symbol\);) s
25.8 526 M (70:) s
52.2 526 M
(   cout << endl;) s
25.8 514 M (71:) s
52.2 514 M
(   for \(const astree* child: tree->children\) {) s
25.8 502 M (72:) s
52.2 502 M
(      preorder_astree \(depth + 1, child\);) s
25.8 490 M (73:) s
52.2 490 M
(   }) s
25.8 478 M (74:) s
52.2 478 M
(}) s
25.8 466 M (75:) s
25.8 454 M (76:) s
52.2 454 M
(void print_astree \(const char* func, int line, const astree* tree\) {) s
25.8 442 M (77:) s
52.2 442 M
(   cout << func << "[" << line << "]:" << endl;) s
25.8 430 M (78:) s
52.2 430 M
(   preorder_astree \(1, tree\);) s
25.8 418 M (79:) s
52.2 418 M
(}) s
25.8 406 M (80:) s
25.8 394 M (81:) s
52.2 394 M
(#define PRINT_ASTREE\(TREE\) print_astree \(__func__, __LINE__, TREE\)) s
25.8 382 M (82:) s
_R
S
%%Page: (3) 3
%%BeginPageSetup
_S
38 24 translate
/pagenum 3 def
/fname (expr-recdes.cpp) def
/fdir (.) def
/ftail (expr-recdes.cpp) def
% User defined strings:
/pagenumstr (3) def
/moddatestr (04/01/16) def
/pagecountstr (/6) def
/modtimestr (16:43:13) def
/user_header_p true def
/user_header_left_str ($cmps104a-wm/Examples/e00.expr-recdes/) def
/user_header_center_str () def
/user_header_right_str () def
/user_footer_p false def
%%EndPageSetup
column_borders
do_header
25.8 694 M (83:) s
25.8 682 M (84:) s
52.2 682 M
(class scanner {) s
25.8 670 M (85:) s
52.2 670 M
(   private:) s
25.8 658 M (86:) s
52.2 658 M
(      int peekchar {getchar\(\)};) s
25.8 646 M (87:) s
52.2 646 M
(      astree* lookahead {nullptr};) s
25.8 634 M (88:) s
52.2 634 M
(      string scan_chars \(int \(*\) \(int\)\);) s
25.8 622 M (89:) s
52.2 622 M
(      void advance \(int symbol, int \(*ischar\) \(int\)\);) s
25.8 610 M (90:) s
52.2 610 M
(   public:) s
25.8 598 M (91:) s
52.2 598 M
(      scanner\(\) { get_token\(\); }) s
25.8 586 M (92:) s
52.2 586 M
(      ~scanner\(\) { delete lookahead; }) s
25.8 574 M (93:) s
52.2 574 M
(      unsigned peek_symbol\(\) const { return lookahead->symbol; }) s
25.8 562 M (94:) s
52.2 562 M
(      astree* get_token\(\);) s
25.8 550 M (95:) s
52.2 550 M
(      void skip_token\(\) { delete get_token\(\); }) s
25.8 538 M (96:) s
52.2 538 M
(};) s
25.8 526 M (97:) s
25.8 514 M (98:) s
52.2 514 M
(string scanner::scan_chars \(int \(*ischar\) \(int\)\) {) s
25.8 502 M (99:) s
52.2 502 M
(   string lexeme;) s
19.2 490 M (100:) s
52.2 490 M
(   do {) s
19.2 478 M (101:) s
52.2 478 M
(      assert \(peekchar != EOF\);) s
19.2 466 M (102:) s
52.2 466 M
(      lexeme += peekchar;) s
19.2 454 M (103:) s
52.2 454 M
(      peekchar = getchar\(\);) s
19.2 442 M (104:) s
52.2 442 M
(   }while \(ischar and ischar \(peekchar\)\);) s
19.2 430 M (105:) s
52.2 430 M
(   return lexeme;) s
19.2 418 M (106:) s
52.2 418 M
(}) s
19.2 406 M (107:) s
19.2 394 M (108:) s
52.2 394 M
(void scanner::advance \(int symbol, int \(*ischar\) \(int\)\) {) s
19.2 382 M (109:) s
52.2 382 M
(   string lexeme = symbol != ENDFILE ? scan_chars \(ischar\) : "<<EOF>>";) s
19.2 370 M (110:) s
52.2 370 M
(   lookahead = new astree \(symbol, lexeme\);) s
19.2 358 M (111:) s
52.2 358 M
(}) s
19.2 346 M (112:) s
_R
S
%%Page: (4) 4
%%BeginPageSetup
_S
38 24 translate
/pagenum 4 def
/fname (expr-recdes.cpp) def
/fdir (.) def
/ftail (expr-recdes.cpp) def
% User defined strings:
/pagenumstr (4) def
/moddatestr (04/01/16) def
/pagecountstr (/6) def
/modtimestr (16:43:13) def
/user_header_p true def
/user_header_left_str ($cmps104a-wm/Examples/e00.expr-recdes/) def
/user_header_center_str () def
/user_header_right_str () def
/user_footer_p false def
%%EndPageSetup
column_borders
do_header
19.2 694 M (113:) s
19.2 682 M (114:) s
52.2 682 M
(astree* scanner::get_token\(\) {) s
19.2 670 M (115:) s
52.2 670 M
(   astree* token = lookahead;) s
19.2 658 M (116:) s
52.2 658 M
(   for \(;;\) {) s
19.2 646 M (117:) s
52.2 646 M
(      if \(isalpha \(peekchar\)\) {) s
19.2 634 M (118:) s
52.2 634 M
(         advance \(IDENT, isalnum\);) s
19.2 622 M (119:) s
52.2 622 M
(         break;) s
19.2 610 M (120:) s
52.2 610 M
(      }) s
19.2 598 M (121:) s
52.2 598 M
(      if \(isdigit \(peekchar\)\) {) s
19.2 586 M (122:) s
52.2 586 M
(         advance \(NUMBER, isdigit\);) s
19.2 574 M (123:) s
52.2 574 M
(         break;) s
19.2 562 M (124:) s
52.2 562 M
(      }) s
19.2 550 M (125:) s
52.2 550 M
(      switch \(peekchar\) {) s
19.2 538 M (126:) s
52.2 538 M
(         case ' ':) s
19.2 526 M (127:) s
52.2 526 M
(         case '\\n':) s
19.2 514 M (128:) s
52.2 514 M
(            scan_chars \(isspace\);) s
19.2 502 M (129:) s
52.2 502 M
(            continue;) s
19.2 490 M (130:) s
52.2 490 M
(         case '#':) s
19.2 478 M (131:) s
52.2 478 M
(            scan_chars \([] \(int chr\) -> int {) s
19.2 466 M (132:) s
52.2 466 M
(                           return chr != '\\n' and chr != EOF;) s
19.2 454 M (133:) s
52.2 454 M
(                        }\);) s
19.2 442 M (134:) s
52.2 442 M
(            continue;) s
19.2 430 M (135:) s
52.2 430 M
(         case '+':) s
19.2 418 M (136:) s
52.2 418 M
(         case '-':) s
19.2 406 M (137:) s
52.2 406 M
(         case '*':) s
19.2 394 M (138:) s
52.2 394 M
(         case '/':) s
19.2 382 M (139:) s
52.2 382 M
(         case '\(':) s
19.2 370 M (140:) s
52.2 370 M
(         case '\)':) s
19.2 358 M (141:) s
52.2 358 M
(         case ';':) s
19.2 346 M (142:) s
52.2 346 M
(            advance \(peekchar, nullptr\);) s
19.2 334 M (143:) s
52.2 334 M
(            break;) s
19.2 322 M (144:) s
52.2 322 M
(         case EOF:) s
19.2 310 M (145:) s
52.2 310 M
(            advance \(ENDFILE, nullptr\);) s
19.2 298 M (146:) s
52.2 298 M
(            break;) s
19.2 286 M (147:) s
52.2 286 M
(         default:) s
19.2 274 M (148:) s
52.2 274 M
(            assert \(false\);) s
19.2 262 M (149:) s
52.2 262 M
(      }) s
19.2 250 M (150:) s
52.2 250 M
(      break;) s
19.2 238 M (151:) s
52.2 238 M
(   }) s
19.2 226 M (152:) s
52.2 226 M
(   if \(token != nullptr\) PRINT_ASTREE \(token\);) s
19.2 214 M (153:) s
52.2 214 M
(   return token;) s
19.2 202 M (154:) s
52.2 202 M
(}) s
19.2 190 M (155:) s
_R
S
%%Page: (5) 5
%%BeginPageSetup
_S
38 24 translate
/pagenum 5 def
/fname (expr-recdes.cpp) def
/fdir (.) def
/ftail (expr-recdes.cpp) def
% User defined strings:
/pagenumstr (5) def
/moddatestr (04/01/16) def
/pagecountstr (/6) def
/modtimestr (16:43:13) def
/user_header_p true def
/user_header_left_str ($cmps104a-wm/Examples/e00.expr-recdes/) def
/user_header_center_str () def
/user_header_right_str () def
/user_footer_p false def
%%EndPageSetup
column_borders
do_header
19.2 694 M (156:) s
19.2 682 M (157:) s
52.2 682 M
(astree* parse_expr \(scanner& scanner\);) s
19.2 670 M (158:) s
19.2 658 M (159:) s
52.2 658 M
(astree* parse_factor \(scanner& scanner\) {) s
19.2 646 M (160:) s
52.2 646 M
(   astree* tree = nullptr;) s
19.2 634 M (161:) s
52.2 634 M
(   switch \(scanner.peek_symbol\(\)\) {) s
19.2 622 M (162:) s
52.2 622 M
(      case '\(':) s
19.2 610 M (163:) s
52.2 610 M
(         scanner.skip_token\(\);) s
19.2 598 M (164:) s
52.2 598 M
(         tree = parse_expr \(scanner\);) s
19.2 586 M (165:) s
52.2 586 M
(         assert \(scanner.peek_symbol\(\) == '\)'\);) s
19.2 574 M (166:) s
52.2 574 M
(         scanner.skip_token\(\);) s
19.2 562 M (167:) s
52.2 562 M
(         break;) s
19.2 550 M (168:) s
52.2 550 M
(      case IDENT:) s
19.2 538 M (169:) s
52.2 538 M
(      case NUMBER:) s
19.2 526 M (170:) s
52.2 526 M
(         tree = scanner.get_token\(\);) s
19.2 514 M (171:) s
52.2 514 M
(         break;) s
19.2 502 M (172:) s
52.2 502 M
(      default:) s
19.2 490 M (173:) s
52.2 490 M
(         assert \(scanner.peek_symbol\(\) == NOSYMBOL\);) s
19.2 478 M (174:) s
52.2 478 M
(   }) s
19.2 466 M (175:) s
52.2 466 M
(   PRINT_ASTREE \(tree\);) s
19.2 454 M (176:) s
52.2 454 M
(   return tree;) s
19.2 442 M (177:) s
52.2 442 M
(}) s
19.2 430 M (178:) s
19.2 418 M (179:) s
52.2 418 M
(astree* parse_term \(scanner& scanner\) {) s
19.2 406 M (180:) s
52.2 406 M
(   astree* root = parse_factor \(scanner\);) s
19.2 394 M (181:) s
52.2 394 M
(   for \(;;\) {) s
19.2 382 M (182:) s
52.2 382 M
(      switch \(scanner.peek_symbol\(\)\) {) s
19.2 370 M (183:) s
52.2 370 M
(         case '*':) s
19.2 358 M (184:) s
52.2 358 M
(         case '/': {) s
19.2 346 M (185:) s
52.2 346 M
(            astree* oper = scanner.get_token\(\);) s
19.2 334 M (186:) s
52.2 334 M
(            oper->adopt \(root\);) s
19.2 322 M (187:) s
52.2 322 M
(            oper->adopt \(parse_factor \(scanner\)\);) s
19.2 310 M (188:) s
52.2 310 M
(            root = oper;) s
19.2 298 M (189:) s
52.2 298 M
(            break;) s
19.2 286 M (190:) s
52.2 286 M
(         }) s
19.2 274 M (191:) s
52.2 274 M
(         default:) s
19.2 262 M (192:) s
52.2 262 M
(            PRINT_ASTREE \(root\);) s
19.2 250 M (193:) s
52.2 250 M
(            return root;) s
19.2 238 M (194:) s
52.2 238 M
(      }) s
19.2 226 M (195:) s
52.2 226 M
(   }) s
19.2 214 M (196:) s
52.2 214 M
(}) s
19.2 202 M (197:) s
_R
S
%%Page: (6) 6
%%BeginPageSetup
_S
38 24 translate
/pagenum 6 def
/fname (expr-recdes.cpp) def
/fdir (.) def
/ftail (expr-recdes.cpp) def
% User defined strings:
/pagenumstr (6) def
/moddatestr (04/01/16) def
/pagecountstr (/6) def
/modtimestr (16:43:13) def
/user_header_p true def
/user_header_left_str ($cmps104a-wm/Examples/e00.expr-recdes/) def
/user_header_center_str () def
/user_header_right_str () def
/user_footer_p false def
%%EndPageSetup
column_borders
do_header
19.2 694 M (198:) s
19.2 682 M (199:) s
52.2 682 M
(astree* parse_expr \(scanner& scanner\) {) s
19.2 670 M (200:) s
52.2 670 M
(   astree* root = parse_term \(scanner\);) s
19.2 658 M (201:) s
52.2 658 M
(   for \(;;\) {) s
19.2 646 M (202:) s
52.2 646 M
(      switch \(scanner.peek_symbol\(\)\) {) s
19.2 634 M (203:) s
52.2 634 M
(         case '+':) s
19.2 622 M (204:) s
52.2 622 M
(         case '-': {) s
19.2 610 M (205:) s
52.2 610 M
(            astree* oper = scanner.get_token\(\);) s
19.2 598 M (206:) s
52.2 598 M
(            oper->adopt \(root\);) s
19.2 586 M (207:) s
52.2 586 M
(            oper->adopt \(parse_term \(scanner\)\);) s
19.2 574 M (208:) s
52.2 574 M
(            root = oper;) s
19.2 562 M (209:) s
52.2 562 M
(            break;) s
19.2 550 M (210:) s
52.2 550 M
(         }) s
19.2 538 M (211:) s
52.2 538 M
(         default:) s
19.2 526 M (212:) s
52.2 526 M
(            PRINT_ASTREE \(root\);) s
19.2 514 M (213:) s
52.2 514 M
(            return root;) s
19.2 502 M (214:) s
52.2 502 M
(      }) s
19.2 490 M (215:) s
52.2 490 M
(   }) s
19.2 478 M (216:) s
52.2 478 M
(}) s
19.2 466 M (217:) s
19.2 454 M (218:) s
52.2 454 M
(void parse_program \(scanner& scanner\) {) s
19.2 442 M (219:) s
52.2 442 M
(   astree* root = new astree \(ROOT, "<<ROOT>>"\);) s
19.2 430 M (220:) s
52.2 430 M
(   while \(scanner.peek_symbol\(\) != ENDFILE\) {) s
19.2 418 M (221:) s
52.2 418 M
(      astree* tree = parse_expr \(scanner\);) s
19.2 406 M (222:) s
52.2 406 M
(      cout << "\\f" << endl;) s
19.2 394 M (223:) s
52.2 394 M
(      assert \(scanner.peek_symbol\(\) == ';'\);) s
19.2 382 M (224:) s
52.2 382 M
(      scanner.skip_token\(\);) s
19.2 370 M (225:) s
52.2 370 M
(      root->adopt \(tree\);) s
19.2 358 M (226:) s
52.2 358 M
(   }) s
19.2 346 M (227:) s
52.2 346 M
(   PRINT_ASTREE \(root\);) s
19.2 334 M (228:) s
52.2 334 M
(   delete root;) s
19.2 322 M (229:) s
52.2 322 M
(}) s
19.2 310 M (230:) s
19.2 298 M (231:) s
52.2 298 M
(int main \(void\) {) s
19.2 286 M (232:) s
52.2 286 M
(   scanner scanner;) s
19.2 274 M (233:) s
52.2 274 M
(   parse_program \(scanner\);) s
19.2 262 M (234:) s
52.2 262 M
(   assert \(scanner.peek_symbol\(\) == ENDFILE\);) s
19.2 250 M (235:) s
52.2 250 M
(   return EXIT_SUCCESS;) s
19.2 238 M (236:) s
52.2 238 M
(}) s
19.2 226 M (237:) s
_R
S
%%Page: (1) 7
%%BeginPageSetup
_S
38 24 translate
/pagenum 1 def
/fname (Makefile) def
/fdir (.) def
/ftail (Makefile) def
% User defined strings:
/pagenumstr (1) def
/moddatestr (04/01/16) def
/pagecountstr (/1) def
/modtimestr (16:43:12) def
/user_header_p true def
/user_header_left_str ($cmps104a-wm/Examples/e00.expr-recdes/) def
/user_header_center_str () def
/user_header_right_str () def
/user_footer_p false def
%%EndPageSetup
column_borders
do_header
32.4 694 M (1:) s
52.2 694 M
(# $Id: Makefile,v 1.40 2016-04-01 16:23:32-07 - - $) s
32.4 682 M (2:) s
32.4 670 M (3:) s
52.2 670 M
(GCC    = g++ -g -O0 -Wall -Wextra -std=gnu++14) s
32.4 658 M (4:) s
52.2 658 M
(EXEC   = expr-recdes) s
32.4 646 M (5:) s
52.2 646 M
(LIST   = ${EXEC}.cpp Makefile test.in test.out test.err) s
32.4 634 M (6:) s
52.2 634 M
(GRIND  = valgrind --leak-check=full --show-reachable=yes) s
32.4 622 M (7:) s
32.4 610 M (8:) s
52.2 610 M
(all : ${EXEC}) s
32.4 598 M (9:) s
25.8 586 M (10:) s
52.2 586 M
(% : %.cpp) s
25.8 574 M (11:) s
52.2 574 M
(        cid + $<) s
25.8 562 M (12:) s
52.2 562 M
(        checksource $<) s
25.8 550 M (13:) s
52.2 550 M
(        cpplint.py.perl $<) s
25.8 538 M (14:) s
52.2 538 M
(        ${GCC} $< -o $@) s
25.8 526 M (15:) s
25.8 514 M (16:) s
52.2 514 M
(test.out test.err: ${EXEC} test.in) s
25.8 502 M (17:) s
52.2 502 M
(        ${GRIND} ${EXEC} <test.in >test.out 2>test.err) s
25.8 490 M (18:) s
52.2 490 M
(        if [ -f core ] ; then rm core ; fi) s
25.8 478 M (19:) s
25.8 466 M (20:) s
52.2 466 M
(ci :) s
25.8 454 M (21:) s
52.2 454 M
(        checksource ${filter-out test.out test.err, ${LIST}}) s
25.8 442 M (22:) s
52.2 442 M
(        cid + expr-recdes.cpp Makefile test.in) s
25.8 430 M (23:) s
25.8 418 M (24:) s
52.2 418 M
(lis : test.out test.err) s
25.8 406 M (25:) s
52.2 406 M
(        killps gv) s
25.8 394 M (26:) s
52.2 394 M
(        mkpspdf Listing.ps ${LIST}) s
25.8 382 M (27:) s
_R
S
%%Page: (1) 8
%%BeginPageSetup
_S
38 24 translate
/pagenum 1 def
/fname (test.in) def
/fdir (.) def
/ftail (test.in) def
% User defined strings:
/pagenumstr (1) def
/moddatestr (04/01/16) def
/pagecountstr (/1) def
/modtimestr (16:43:12) def
/user_header_p true def
/user_header_left_str ($cmps104a-wm/Examples/e00.expr-recdes/) def
/user_header_center_str () def
/user_header_right_str () def
/user_footer_p false def
%%EndPageSetup
column_borders
do_header
32.4 694 M (1:) s
52.2 694 M
(# $Id: test.in,v 1.3 2009-10-01 17:51:46-07 - - $) s
32.4 682 M (2:) s
52.2 682 M
(foo * bar + baz;) s
32.4 670 M (3:) s
52.2 670 M
(34 * 55 * 66;) s
32.4 658 M (4:) s
52.2 658 M
(add + this + and + this;) s
32.4 646 M (5:) s
52.2 646 M
(abc * \(def - ghi\);) s
32.4 634 M (6:) s
52.2 634 M
(abc + def / ghi - jkl;) s
32.4 622 M (7:) s
52.2 622 M
(foo * bar + baz / qux;) s
_R
S
%%Page: (1) 9
%%BeginPageSetup
_S
38 24 translate
/pagenum 1 def
/fname (test.out) def
/fdir (.) def
/ftail (test.out) def
% User defined strings:
/pagenumstr (1) def
/moddatestr (04/01/16) def
/pagecountstr (/7) def
/modtimestr (16:43:14) def
/user_header_p true def
/user_header_left_str ($cmps104a-wm/Examples/e00.expr-recdes/) def
/user_header_center_str () def
/user_header_right_str () def
/user_footer_p false def
%%EndPageSetup
column_borders
do_header
32.4 694 M (1:) s
52.2 694 M
(get_token[152]:) s
32.4 682 M (2:) s
52.2 682 M
(|  "foo" 257\(IDENT\)) s
32.4 670 M (3:) s
52.2 670 M
(parse_factor[175]:) s
32.4 658 M (4:) s
52.2 658 M
(|  "foo" 257\(IDENT\)) s
32.4 646 M (5:) s
52.2 646 M
(get_token[152]:) s
32.4 634 M (6:) s
52.2 634 M
(|  "*" 42\('*'\)) s
32.4 622 M (7:) s
52.2 622 M
(get_token[152]:) s
32.4 610 M (8:) s
52.2 610 M
(|  "bar" 257\(IDENT\)) s
32.4 598 M (9:) s
52.2 598 M
(parse_factor[175]:) s
25.8 586 M (10:) s
52.2 586 M
(|  "bar" 257\(IDENT\)) s
25.8 574 M (11:) s
52.2 574 M
(parse_term[192]:) s
25.8 562 M (12:) s
52.2 562 M
(|  "*" 42\('*'\)) s
25.8 550 M (13:) s
52.2 550 M
(|  |  "foo" 257\(IDENT\)) s
25.8 538 M (14:) s
52.2 538 M
(|  |  "bar" 257\(IDENT\)) s
25.8 526 M (15:) s
52.2 526 M
(get_token[152]:) s
25.8 514 M (16:) s
52.2 514 M
(|  "+" 43\('+'\)) s
25.8 502 M (17:) s
52.2 502 M
(get_token[152]:) s
25.8 490 M (18:) s
52.2 490 M
(|  "baz" 257\(IDENT\)) s
25.8 478 M (19:) s
52.2 478 M
(parse_factor[175]:) s
25.8 466 M (20:) s
52.2 466 M
(|  "baz" 257\(IDENT\)) s
25.8 454 M (21:) s
52.2 454 M
(parse_term[192]:) s
25.8 442 M (22:) s
52.2 442 M
(|  "baz" 257\(IDENT\)) s
25.8 430 M (23:) s
52.2 430 M
(parse_expr[212]:) s
25.8 418 M (24:) s
52.2 418 M
(|  "+" 43\('+'\)) s
25.8 406 M (25:) s
52.2 406 M
(|  |  "*" 42\('*'\)) s
25.8 394 M (26:) s
52.2 394 M
(|  |  |  "foo" 257\(IDENT\)) s
25.8 382 M (27:) s
52.2 382 M
(|  |  |  "bar" 257\(IDENT\)) s
25.8 370 M (28:) s
52.2 370 M
(|  |  "baz" 257\(IDENT\)) s
_R
S
%%Page: (2) 10
%%BeginPageSetup
_S
38 24 translate
/pagenum 2 def
/fname (test.out) def
/fdir (.) def
/ftail (test.out) def
% User defined strings:
/pagenumstr (2) def
/moddatestr (04/01/16) def
/pagecountstr (/7) def
/modtimestr (16:43:14) def
/user_header_p true def
/user_header_left_str ($cmps104a-wm/Examples/e00.expr-recdes/) def
/user_header_center_str () def
/user_header_right_str () def
/user_footer_p false def
%%EndPageSetup
column_borders
do_header
25.8 694 M (29:) s
25.8 682 M (30:) s
52.2 682 M
(get_token[152]:) s
25.8 670 M (31:) s
52.2 670 M
(|  ";" 59\(';'\)) s
25.8 658 M (32:) s
52.2 658 M
(get_token[152]:) s
25.8 646 M (33:) s
52.2 646 M
(|  "34" 258\(NUMBER\)) s
25.8 634 M (34:) s
52.2 634 M
(parse_factor[175]:) s
25.8 622 M (35:) s
52.2 622 M
(|  "34" 258\(NUMBER\)) s
25.8 610 M (36:) s
52.2 610 M
(get_token[152]:) s
25.8 598 M (37:) s
52.2 598 M
(|  "*" 42\('*'\)) s
25.8 586 M (38:) s
52.2 586 M
(get_token[152]:) s
25.8 574 M (39:) s
52.2 574 M
(|  "55" 258\(NUMBER\)) s
25.8 562 M (40:) s
52.2 562 M
(parse_factor[175]:) s
25.8 550 M (41:) s
52.2 550 M
(|  "55" 258\(NUMBER\)) s
25.8 538 M (42:) s
52.2 538 M
(get_token[152]:) s
25.8 526 M (43:) s
52.2 526 M
(|  "*" 42\('*'\)) s
25.8 514 M (44:) s
52.2 514 M
(get_token[152]:) s
25.8 502 M (45:) s
52.2 502 M
(|  "66" 258\(NUMBER\)) s
25.8 490 M (46:) s
52.2 490 M
(parse_factor[175]:) s
25.8 478 M (47:) s
52.2 478 M
(|  "66" 258\(NUMBER\)) s
25.8 466 M (48:) s
52.2 466 M
(parse_term[192]:) s
25.8 454 M (49:) s
52.2 454 M
(|  "*" 42\('*'\)) s
25.8 442 M (50:) s
52.2 442 M
(|  |  "*" 42\('*'\)) s
25.8 430 M (51:) s
52.2 430 M
(|  |  |  "34" 258\(NUMBER\)) s
25.8 418 M (52:) s
52.2 418 M
(|  |  |  "55" 258\(NUMBER\)) s
25.8 406 M (53:) s
52.2 406 M
(|  |  "66" 258\(NUMBER\)) s
25.8 394 M (54:) s
52.2 394 M
(parse_expr[212]:) s
25.8 382 M (55:) s
52.2 382 M
(|  "*" 42\('*'\)) s
25.8 370 M (56:) s
52.2 370 M
(|  |  "*" 42\('*'\)) s
25.8 358 M (57:) s
52.2 358 M
(|  |  |  "34" 258\(NUMBER\)) s
25.8 346 M (58:) s
52.2 346 M
(|  |  |  "55" 258\(NUMBER\)) s
25.8 334 M (59:) s
52.2 334 M
(|  |  "66" 258\(NUMBER\)) s
_R
S
%%Page: (3) 11
%%BeginPageSetup
_S
38 24 translate
/pagenum 3 def
/fname (test.out) def
/fdir (.) def
/ftail (test.out) def
% User defined strings:
/pagenumstr (3) def
/moddatestr (04/01/16) def
/pagecountstr (/7) def
/modtimestr (16:43:14) def
/user_header_p true def
/user_header_left_str ($cmps104a-wm/Examples/e00.expr-recdes/) def
/user_header_center_str () def
/user_header_right_str () def
/user_footer_p false def
%%EndPageSetup
column_borders
do_header
25.8 694 M (60:) s
25.8 682 M (61:) s
52.2 682 M
(get_token[152]:) s
25.8 670 M (62:) s
52.2 670 M
(|  ";" 59\(';'\)) s
25.8 658 M (63:) s
52.2 658 M
(get_token[152]:) s
25.8 646 M (64:) s
52.2 646 M
(|  "add" 257\(IDENT\)) s
25.8 634 M (65:) s
52.2 634 M
(parse_factor[175]:) s
25.8 622 M (66:) s
52.2 622 M
(|  "add" 257\(IDENT\)) s
25.8 610 M (67:) s
52.2 610 M
(parse_term[192]:) s
25.8 598 M (68:) s
52.2 598 M
(|  "add" 257\(IDENT\)) s
25.8 586 M (69:) s
52.2 586 M
(get_token[152]:) s
25.8 574 M (70:) s
52.2 574 M
(|  "+" 43\('+'\)) s
25.8 562 M (71:) s
52.2 562 M
(get_token[152]:) s
25.8 550 M (72:) s
52.2 550 M
(|  "this" 257\(IDENT\)) s
25.8 538 M (73:) s
52.2 538 M
(parse_factor[175]:) s
25.8 526 M (74:) s
52.2 526 M
(|  "this" 257\(IDENT\)) s
25.8 514 M (75:) s
52.2 514 M
(parse_term[192]:) s
25.8 502 M (76:) s
52.2 502 M
(|  "this" 257\(IDENT\)) s
25.8 490 M (77:) s
52.2 490 M
(get_token[152]:) s
25.8 478 M (78:) s
52.2 478 M
(|  "+" 43\('+'\)) s
25.8 466 M (79:) s
52.2 466 M
(get_token[152]:) s
25.8 454 M (80:) s
52.2 454 M
(|  "and" 257\(IDENT\)) s
25.8 442 M (81:) s
52.2 442 M
(parse_factor[175]:) s
25.8 430 M (82:) s
52.2 430 M
(|  "and" 257\(IDENT\)) s
25.8 418 M (83:) s
52.2 418 M
(parse_term[192]:) s
25.8 406 M (84:) s
52.2 406 M
(|  "and" 257\(IDENT\)) s
25.8 394 M (85:) s
52.2 394 M
(get_token[152]:) s
25.8 382 M (86:) s
52.2 382 M
(|  "+" 43\('+'\)) s
25.8 370 M (87:) s
52.2 370 M
(get_token[152]:) s
25.8 358 M (88:) s
52.2 358 M
(|  "this" 257\(IDENT\)) s
25.8 346 M (89:) s
52.2 346 M
(parse_factor[175]:) s
25.8 334 M (90:) s
52.2 334 M
(|  "this" 257\(IDENT\)) s
25.8 322 M (91:) s
52.2 322 M
(parse_term[192]:) s
25.8 310 M (92:) s
52.2 310 M
(|  "this" 257\(IDENT\)) s
25.8 298 M (93:) s
52.2 298 M
(parse_expr[212]:) s
25.8 286 M (94:) s
52.2 286 M
(|  "+" 43\('+'\)) s
25.8 274 M (95:) s
52.2 274 M
(|  |  "+" 43\('+'\)) s
25.8 262 M (96:) s
52.2 262 M
(|  |  |  "+" 43\('+'\)) s
25.8 250 M (97:) s
52.2 250 M
(|  |  |  |  "add" 257\(IDENT\)) s
25.8 238 M (98:) s
52.2 238 M
(|  |  |  |  "this" 257\(IDENT\)) s
25.8 226 M (99:) s
52.2 226 M
(|  |  |  "and" 257\(IDENT\)) s
19.2 214 M (100:) s
52.2 214 M
(|  |  "this" 257\(IDENT\)) s
_R
S
%%Page: (4) 12
%%BeginPageSetup
_S
38 24 translate
/pagenum 4 def
/fname (test.out) def
/fdir (.) def
/ftail (test.out) def
% User defined strings:
/pagenumstr (4) def
/moddatestr (04/01/16) def
/pagecountstr (/7) def
/modtimestr (16:43:14) def
/user_header_p true def
/user_header_left_str ($cmps104a-wm/Examples/e00.expr-recdes/) def
/user_header_center_str () def
/user_header_right_str () def
/user_footer_p false def
%%EndPageSetup
column_borders
do_header
19.2 694 M (101:) s
19.2 682 M (102:) s
52.2 682 M
(get_token[152]:) s
19.2 670 M (103:) s
52.2 670 M
(|  ";" 59\(';'\)) s
19.2 658 M (104:) s
52.2 658 M
(get_token[152]:) s
19.2 646 M (105:) s
52.2 646 M
(|  "abc" 257\(IDENT\)) s
19.2 634 M (106:) s
52.2 634 M
(parse_factor[175]:) s
19.2 622 M (107:) s
52.2 622 M
(|  "abc" 257\(IDENT\)) s
19.2 610 M (108:) s
52.2 610 M
(get_token[152]:) s
19.2 598 M (109:) s
52.2 598 M
(|  "*" 42\('*'\)) s
19.2 586 M (110:) s
52.2 586 M
(get_token[152]:) s
19.2 574 M (111:) s
52.2 574 M
(|  "\(" 40\('\('\)) s
19.2 562 M (112:) s
52.2 562 M
(get_token[152]:) s
19.2 550 M (113:) s
52.2 550 M
(|  "def" 257\(IDENT\)) s
19.2 538 M (114:) s
52.2 538 M
(parse_factor[175]:) s
19.2 526 M (115:) s
52.2 526 M
(|  "def" 257\(IDENT\)) s
19.2 514 M (116:) s
52.2 514 M
(parse_term[192]:) s
19.2 502 M (117:) s
52.2 502 M
(|  "def" 257\(IDENT\)) s
19.2 490 M (118:) s
52.2 490 M
(get_token[152]:) s
19.2 478 M (119:) s
52.2 478 M
(|  "-" 45\('-'\)) s
19.2 466 M (120:) s
52.2 466 M
(get_token[152]:) s
19.2 454 M (121:) s
52.2 454 M
(|  "ghi" 257\(IDENT\)) s
19.2 442 M (122:) s
52.2 442 M
(parse_factor[175]:) s
19.2 430 M (123:) s
52.2 430 M
(|  "ghi" 257\(IDENT\)) s
19.2 418 M (124:) s
52.2 418 M
(parse_term[192]:) s
19.2 406 M (125:) s
52.2 406 M
(|  "ghi" 257\(IDENT\)) s
19.2 394 M (126:) s
52.2 394 M
(parse_expr[212]:) s
19.2 382 M (127:) s
52.2 382 M
(|  "-" 45\('-'\)) s
19.2 370 M (128:) s
52.2 370 M
(|  |  "def" 257\(IDENT\)) s
19.2 358 M (129:) s
52.2 358 M
(|  |  "ghi" 257\(IDENT\)) s
19.2 346 M (130:) s
52.2 346 M
(get_token[152]:) s
19.2 334 M (131:) s
52.2 334 M
(|  "\)" 41\('\)'\)) s
19.2 322 M (132:) s
52.2 322 M
(parse_factor[175]:) s
19.2 310 M (133:) s
52.2 310 M
(|  "-" 45\('-'\)) s
19.2 298 M (134:) s
52.2 298 M
(|  |  "def" 257\(IDENT\)) s
19.2 286 M (135:) s
52.2 286 M
(|  |  "ghi" 257\(IDENT\)) s
19.2 274 M (136:) s
52.2 274 M
(parse_term[192]:) s
19.2 262 M (137:) s
52.2 262 M
(|  "*" 42\('*'\)) s
19.2 250 M (138:) s
52.2 250 M
(|  |  "abc" 257\(IDENT\)) s
19.2 238 M (139:) s
52.2 238 M
(|  |  "-" 45\('-'\)) s
19.2 226 M (140:) s
52.2 226 M
(|  |  |  "def" 257\(IDENT\)) s
19.2 214 M (141:) s
52.2 214 M
(|  |  |  "ghi" 257\(IDENT\)) s
19.2 202 M (142:) s
52.2 202 M
(parse_expr[212]:) s
19.2 190 M (143:) s
52.2 190 M
(|  "*" 42\('*'\)) s
19.2 178 M (144:) s
52.2 178 M
(|  |  "abc" 257\(IDENT\)) s
19.2 166 M (145:) s
52.2 166 M
(|  |  "-" 45\('-'\)) s
19.2 154 M (146:) s
52.2 154 M
(|  |  |  "def" 257\(IDENT\)) s
19.2 142 M (147:) s
52.2 142 M
(|  |  |  "ghi" 257\(IDENT\)) s
_R
S
%%Page: (5) 13
%%BeginPageSetup
_S
38 24 translate
/pagenum 5 def
/fname (test.out) def
/fdir (.) def
/ftail (test.out) def
% User defined strings:
/pagenumstr (5) def
/moddatestr (04/01/16) def
/pagecountstr (/7) def
/modtimestr (16:43:14) def
/user_header_p true def
/user_header_left_str ($cmps104a-wm/Examples/e00.expr-recdes/) def
/user_header_center_str () def
/user_header_right_str () def
/user_footer_p false def
%%EndPageSetup
column_borders
do_header
19.2 694 M (148:) s
19.2 682 M (149:) s
52.2 682 M
(get_token[152]:) s
19.2 670 M (150:) s
52.2 670 M
(|  ";" 59\(';'\)) s
19.2 658 M (151:) s
52.2 658 M
(get_token[152]:) s
19.2 646 M (152:) s
52.2 646 M
(|  "abc" 257\(IDENT\)) s
19.2 634 M (153:) s
52.2 634 M
(parse_factor[175]:) s
19.2 622 M (154:) s
52.2 622 M
(|  "abc" 257\(IDENT\)) s
19.2 610 M (155:) s
52.2 610 M
(parse_term[192]:) s
19.2 598 M (156:) s
52.2 598 M
(|  "abc" 257\(IDENT\)) s
19.2 586 M (157:) s
52.2 586 M
(get_token[152]:) s
19.2 574 M (158:) s
52.2 574 M
(|  "+" 43\('+'\)) s
19.2 562 M (159:) s
52.2 562 M
(get_token[152]:) s
19.2 550 M (160:) s
52.2 550 M
(|  "def" 257\(IDENT\)) s
19.2 538 M (161:) s
52.2 538 M
(parse_factor[175]:) s
19.2 526 M (162:) s
52.2 526 M
(|  "def" 257\(IDENT\)) s
19.2 514 M (163:) s
52.2 514 M
(get_token[152]:) s
19.2 502 M (164:) s
52.2 502 M
(|  "/" 47\('/'\)) s
19.2 490 M (165:) s
52.2 490 M
(get_token[152]:) s
19.2 478 M (166:) s
52.2 478 M
(|  "ghi" 257\(IDENT\)) s
19.2 466 M (167:) s
52.2 466 M
(parse_factor[175]:) s
19.2 454 M (168:) s
52.2 454 M
(|  "ghi" 257\(IDENT\)) s
19.2 442 M (169:) s
52.2 442 M
(parse_term[192]:) s
19.2 430 M (170:) s
52.2 430 M
(|  "/" 47\('/'\)) s
19.2 418 M (171:) s
52.2 418 M
(|  |  "def" 257\(IDENT\)) s
19.2 406 M (172:) s
52.2 406 M
(|  |  "ghi" 257\(IDENT\)) s
19.2 394 M (173:) s
52.2 394 M
(get_token[152]:) s
19.2 382 M (174:) s
52.2 382 M
(|  "-" 45\('-'\)) s
19.2 370 M (175:) s
52.2 370 M
(get_token[152]:) s
19.2 358 M (176:) s
52.2 358 M
(|  "jkl" 257\(IDENT\)) s
19.2 346 M (177:) s
52.2 346 M
(parse_factor[175]:) s
19.2 334 M (178:) s
52.2 334 M
(|  "jkl" 257\(IDENT\)) s
19.2 322 M (179:) s
52.2 322 M
(parse_term[192]:) s
19.2 310 M (180:) s
52.2 310 M
(|  "jkl" 257\(IDENT\)) s
19.2 298 M (181:) s
52.2 298 M
(parse_expr[212]:) s
19.2 286 M (182:) s
52.2 286 M
(|  "-" 45\('-'\)) s
19.2 274 M (183:) s
52.2 274 M
(|  |  "+" 43\('+'\)) s
19.2 262 M (184:) s
52.2 262 M
(|  |  |  "abc" 257\(IDENT\)) s
19.2 250 M (185:) s
52.2 250 M
(|  |  |  "/" 47\('/'\)) s
19.2 238 M (186:) s
52.2 238 M
(|  |  |  |  "def" 257\(IDENT\)) s
19.2 226 M (187:) s
52.2 226 M
(|  |  |  |  "ghi" 257\(IDENT\)) s
19.2 214 M (188:) s
52.2 214 M
(|  |  "jkl" 257\(IDENT\)) s
_R
S
%%Page: (6) 14
%%BeginPageSetup
_S
38 24 translate
/pagenum 6 def
/fname (test.out) def
/fdir (.) def
/ftail (test.out) def
% User defined strings:
/pagenumstr (6) def
/moddatestr (04/01/16) def
/pagecountstr (/7) def
/modtimestr (16:43:14) def
/user_header_p true def
/user_header_left_str ($cmps104a-wm/Examples/e00.expr-recdes/) def
/user_header_center_str () def
/user_header_right_str () def
/user_footer_p false def
%%EndPageSetup
column_borders
do_header
19.2 694 M (189:) s
19.2 682 M (190:) s
52.2 682 M
(get_token[152]:) s
19.2 670 M (191:) s
52.2 670 M
(|  ";" 59\(';'\)) s
19.2 658 M (192:) s
52.2 658 M
(get_token[152]:) s
19.2 646 M (193:) s
52.2 646 M
(|  "foo" 257\(IDENT\)) s
19.2 634 M (194:) s
52.2 634 M
(parse_factor[175]:) s
19.2 622 M (195:) s
52.2 622 M
(|  "foo" 257\(IDENT\)) s
19.2 610 M (196:) s
52.2 610 M
(get_token[152]:) s
19.2 598 M (197:) s
52.2 598 M
(|  "*" 42\('*'\)) s
19.2 586 M (198:) s
52.2 586 M
(get_token[152]:) s
19.2 574 M (199:) s
52.2 574 M
(|  "bar" 257\(IDENT\)) s
19.2 562 M (200:) s
52.2 562 M
(parse_factor[175]:) s
19.2 550 M (201:) s
52.2 550 M
(|  "bar" 257\(IDENT\)) s
19.2 538 M (202:) s
52.2 538 M
(parse_term[192]:) s
19.2 526 M (203:) s
52.2 526 M
(|  "*" 42\('*'\)) s
19.2 514 M (204:) s
52.2 514 M
(|  |  "foo" 257\(IDENT\)) s
19.2 502 M (205:) s
52.2 502 M
(|  |  "bar" 257\(IDENT\)) s
19.2 490 M (206:) s
52.2 490 M
(get_token[152]:) s
19.2 478 M (207:) s
52.2 478 M
(|  "+" 43\('+'\)) s
19.2 466 M (208:) s
52.2 466 M
(get_token[152]:) s
19.2 454 M (209:) s
52.2 454 M
(|  "baz" 257\(IDENT\)) s
19.2 442 M (210:) s
52.2 442 M
(parse_factor[175]:) s
19.2 430 M (211:) s
52.2 430 M
(|  "baz" 257\(IDENT\)) s
19.2 418 M (212:) s
52.2 418 M
(get_token[152]:) s
19.2 406 M (213:) s
52.2 406 M
(|  "/" 47\('/'\)) s
19.2 394 M (214:) s
52.2 394 M
(get_token[152]:) s
19.2 382 M (215:) s
52.2 382 M
(|  "qux" 257\(IDENT\)) s
19.2 370 M (216:) s
52.2 370 M
(parse_factor[175]:) s
19.2 358 M (217:) s
52.2 358 M
(|  "qux" 257\(IDENT\)) s
19.2 346 M (218:) s
52.2 346 M
(parse_term[192]:) s
19.2 334 M (219:) s
52.2 334 M
(|  "/" 47\('/'\)) s
19.2 322 M (220:) s
52.2 322 M
(|  |  "baz" 257\(IDENT\)) s
19.2 310 M (221:) s
52.2 310 M
(|  |  "qux" 257\(IDENT\)) s
19.2 298 M (222:) s
52.2 298 M
(parse_expr[212]:) s
19.2 286 M (223:) s
52.2 286 M
(|  "+" 43\('+'\)) s
19.2 274 M (224:) s
52.2 274 M
(|  |  "*" 42\('*'\)) s
19.2 262 M (225:) s
52.2 262 M
(|  |  |  "foo" 257\(IDENT\)) s
19.2 250 M (226:) s
52.2 250 M
(|  |  |  "bar" 257\(IDENT\)) s
19.2 238 M (227:) s
52.2 238 M
(|  |  "/" 47\('/'\)) s
19.2 226 M (228:) s
52.2 226 M
(|  |  |  "baz" 257\(IDENT\)) s
19.2 214 M (229:) s
52.2 214 M
(|  |  |  "qux" 257\(IDENT\)) s
_R
S
%%Page: (7) 15
%%BeginPageSetup
_S
38 24 translate
/pagenum 7 def
/fname (test.out) def
/fdir (.) def
/ftail (test.out) def
% User defined strings:
/pagenumstr (7) def
/moddatestr (04/01/16) def
/pagecountstr (/7) def
/modtimestr (16:43:14) def
/user_header_p true def
/user_header_left_str ($cmps104a-wm/Examples/e00.expr-recdes/) def
/user_header_center_str () def
/user_header_right_str () def
/user_footer_p false def
%%EndPageSetup
column_borders
do_header
19.2 694 M (230:) s
19.2 682 M (231:) s
52.2 682 M
(get_token[152]:) s
19.2 670 M (232:) s
52.2 670 M
(|  ";" 59\(';'\)) s
19.2 658 M (233:) s
52.2 658 M
(parse_program[227]:) s
19.2 646 M (234:) s
52.2 646 M
(|  "<<ROOT>>" 259\(ROOT\)) s
19.2 634 M (235:) s
52.2 634 M
(|  |  "+" 43\('+'\)) s
19.2 622 M (236:) s
52.2 622 M
(|  |  |  "*" 42\('*'\)) s
19.2 610 M (237:) s
52.2 610 M
(|  |  |  |  "foo" 257\(IDENT\)) s
19.2 598 M (238:) s
52.2 598 M
(|  |  |  |  "bar" 257\(IDENT\)) s
19.2 586 M (239:) s
52.2 586 M
(|  |  |  "baz" 257\(IDENT\)) s
19.2 574 M (240:) s
52.2 574 M
(|  |  "*" 42\('*'\)) s
19.2 562 M (241:) s
52.2 562 M
(|  |  |  "*" 42\('*'\)) s
19.2 550 M (242:) s
52.2 550 M
(|  |  |  |  "34" 258\(NUMBER\)) s
19.2 538 M (243:) s
52.2 538 M
(|  |  |  |  "55" 258\(NUMBER\)) s
19.2 526 M (244:) s
52.2 526 M
(|  |  |  "66" 258\(NUMBER\)) s
19.2 514 M (245:) s
52.2 514 M
(|  |  "+" 43\('+'\)) s
19.2 502 M (246:) s
52.2 502 M
(|  |  |  "+" 43\('+'\)) s
19.2 490 M (247:) s
52.2 490 M
(|  |  |  |  "+" 43\('+'\)) s
19.2 478 M (248:) s
52.2 478 M
(|  |  |  |  |  "add" 257\(IDENT\)) s
19.2 466 M (249:) s
52.2 466 M
(|  |  |  |  |  "this" 257\(IDENT\)) s
19.2 454 M (250:) s
52.2 454 M
(|  |  |  |  "and" 257\(IDENT\)) s
19.2 442 M (251:) s
52.2 442 M
(|  |  |  "this" 257\(IDENT\)) s
19.2 430 M (252:) s
52.2 430 M
(|  |  "*" 42\('*'\)) s
19.2 418 M (253:) s
52.2 418 M
(|  |  |  "abc" 257\(IDENT\)) s
19.2 406 M (254:) s
52.2 406 M
(|  |  |  "-" 45\('-'\)) s
19.2 394 M (255:) s
52.2 394 M
(|  |  |  |  "def" 257\(IDENT\)) s
19.2 382 M (256:) s
52.2 382 M
(|  |  |  |  "ghi" 257\(IDENT\)) s
19.2 370 M (257:) s
52.2 370 M
(|  |  "-" 45\('-'\)) s
19.2 358 M (258:) s
52.2 358 M
(|  |  |  "+" 43\('+'\)) s
19.2 346 M (259:) s
52.2 346 M
(|  |  |  |  "abc" 257\(IDENT\)) s
19.2 334 M (260:) s
52.2 334 M
(|  |  |  |  "/" 47\('/'\)) s
19.2 322 M (261:) s
52.2 322 M
(|  |  |  |  |  "def" 257\(IDENT\)) s
19.2 310 M (262:) s
52.2 310 M
(|  |  |  |  |  "ghi" 257\(IDENT\)) s
19.2 298 M (263:) s
52.2 298 M
(|  |  |  "jkl" 257\(IDENT\)) s
19.2 286 M (264:) s
52.2 286 M
(|  |  "+" 43\('+'\)) s
19.2 274 M (265:) s
52.2 274 M
(|  |  |  "*" 42\('*'\)) s
19.2 262 M (266:) s
52.2 262 M
(|  |  |  |  "foo" 257\(IDENT\)) s
19.2 250 M (267:) s
52.2 250 M
(|  |  |  |  "bar" 257\(IDENT\)) s
19.2 238 M (268:) s
52.2 238 M
(|  |  |  "/" 47\('/'\)) s
19.2 226 M (269:) s
52.2 226 M
(|  |  |  |  "baz" 257\(IDENT\)) s
19.2 214 M (270:) s
52.2 214 M
(|  |  |  |  "qux" 257\(IDENT\)) s
_R
S
%%Page: (1) 16
%%BeginPageSetup
_S
38 24 translate
/pagenum 1 def
/fname (test.err) def
/fdir (.) def
/ftail (test.err) def
% User defined strings:
/pagenumstr (1) def
/moddatestr (04/01/16) def
/pagecountstr (/1) def
/modtimestr (16:43:14) def
/user_header_p true def
/user_header_left_str ($cmps104a-wm/Examples/e00.expr-recdes/) def
/user_header_center_str () def
/user_header_right_str () def
/user_footer_p false def
%%EndPageSetup
column_borders
do_header
32.4 694 M (1:) s
52.2 694 M
(==19165== Memcheck, a memory error detector) s
32.4 682 M (2:) s
52.2 682 M
(==19165== Copyright \(C\) 2002-2013, and GNU GPL'd, by Julian Seward et al) s
5 670 M
(.) s
32.4 658 M (3:) s
52.2 658 M
(==19165== Using Valgrind-3.10.1 and LibVEX; rerun with -h for copyright ) s
5 646 M
(info) s
32.4 634 M (4:) s
52.2 634 M
(==19165== Command: expr-recdes) s
32.4 622 M (5:) s
52.2 622 M
(==19165== ) s
32.4 610 M (6:) s
52.2 610 M
(==19165== ) s
32.4 598 M (7:) s
52.2 598 M
(==19165== HEAP SUMMARY:) s
32.4 586 M (8:) s
52.2 586 M
(==19165==     in use at exit: 0 bytes in 0 blocks) s
32.4 574 M (9:) s
52.2 574 M
(==19165==   total heap usage: 221 allocs, 221 frees, 6,285 bytes allocat) s
5 562 M
(ed) s
25.8 550 M (10:) s
52.2 550 M
(==19165== ) s
25.8 538 M (11:) s
52.2 538 M
(==19165== All heap blocks were freed -- no leaks are possible) s
25.8 526 M (12:) s
52.2 526 M
(==19165== ) s
25.8 514 M (13:) s
52.2 514 M
(==19165== For counts of detected and suppressed errors, rerun with: -v) s
25.8 502 M (14:) s
52.2 502 M
(==19165== ERROR SUMMARY: 0 errors from 0 contexts \(suppressed: 1 from 1\)) s
_R
S
%%Trailer
%%Pages: 16
%%DocumentNeededResources: font Times-Roman Courier-Bold Times-Bold 
%%EOF
