%!PS-Adobe-3.0
%%BoundingBox: 38 24 574 768
%%Title: Listing.ps
%%For: Wesley Mackey
%%Creator: GNU Enscript 1.6.6
%%CreationDate: Tue Apr 19 15:58:29 2016
%%Orientation: Portrait
%%Pages: (atend)
%%DocumentMedia: Letter 612 792 0 () ()
%%DocumentNeededResources: (atend)
%%EndComments
%%BeginProlog
%%BeginResource: procset Enscript-Prolog 1.6 6
%
% Procedures.
%

/_S {	% save current state
  /_s save def
} def
/_R {	% restore from saved state
  _s restore
} def

/S {	% showpage protecting gstate
  gsave
  showpage
  grestore
} bind def

/MF {	% fontname newfontname -> -	make a new encoded font
  /newfontname exch def
  /fontname exch def

  /fontdict fontname findfont def
  /newfont fontdict maxlength dict def

  fontdict {
    exch
    dup /FID eq {
      % skip FID pair
      pop pop
    } {
      % copy to the new font dictionary
      exch newfont 3 1 roll put
    } ifelse
  } forall

  newfont /FontName newfontname put

  % insert only valid encoding vectors
  encoding_vector length 256 eq {
    newfont /Encoding encoding_vector put
  } if

  newfontname newfont definefont pop
} def

/MF_PS { % fontname newfontname -> -	make a new font preserving its enc
  /newfontname exch def
  /fontname exch def

  /fontdict fontname findfont def
  /newfont fontdict maxlength dict def

  fontdict {
    exch
    dup /FID eq {
      % skip FID pair
      pop pop
    } {
      % copy to the new font dictionary
      exch newfont 3 1 roll put
    } ifelse
  } forall

  newfont /FontName newfontname put

  newfontname newfont definefont pop
} def

/SF { % fontname width height -> -	set a new font
  /height exch def
  /width exch def

  findfont
  [width 0 0 height 0 0] makefont setfont
} def

/SUF { % fontname width height -> -	set a new user font
  /height exch def
  /width exch def

  /F-gs-user-font MF
  /F-gs-user-font width height SF
} def

/SUF_PS { % fontname width height -> -	set a new user font preserving its enc
  /height exch def
  /width exch def

  /F-gs-user-font MF_PS
  /F-gs-user-font width height SF
} def

/M {moveto} bind def
/s {show} bind def

/Box {	% x y w h -> -			define box path
  /d_h exch def /d_w exch def /d_y exch def /d_x exch def
  d_x d_y  moveto
  d_w 0 rlineto
  0 d_h rlineto
  d_w neg 0 rlineto
  closepath
} def

/bgs {	% x y height blskip gray str -> -	show string with bg color
  /str exch def
  /gray exch def
  /blskip exch def
  /height exch def
  /y exch def
  /x exch def

  gsave
    x y blskip sub str stringwidth pop height Box
    gray setgray
    fill
  grestore
  x y M str s
} def

/bgcs { % x y height blskip red green blue str -> -  show string with bg color
  /str exch def
  /blue exch def
  /green exch def
  /red exch def
  /blskip exch def
  /height exch def
  /y exch def
  /x exch def

  gsave
    x y blskip sub str stringwidth pop height Box
    red green blue setrgbcolor
    fill
  grestore
  x y M str s
} def

% Highlight bars.
/highlight_bars {	% nlines lineheight output_y_margin gray -> -
  gsave
    setgray
    /ymarg exch def
    /lineheight exch def
    /nlines exch def

    % This 2 is just a magic number to sync highlight lines to text.
    0 d_header_y ymarg sub 2 sub translate

    /cw d_output_w cols div def
    /nrows d_output_h ymarg 2 mul sub lineheight div cvi def

    % for each column
    0 1 cols 1 sub {
      cw mul /xp exch def

      % for each rows
      0 1 nrows 1 sub {
        /rn exch def
        rn lineheight mul neg /yp exch def
        rn nlines idiv 2 mod 0 eq {
	  % Draw highlight bar.  4 is just a magic indentation.
	  xp 4 add yp cw 8 sub lineheight neg Box fill
	} if
      } for
    } for

  grestore
} def

% Line highlight bar.
/line_highlight {	% x y width height gray -> -
  gsave
    /gray exch def
    Box gray setgray fill
  grestore
} def

% Column separator lines.
/column_lines {
  gsave
    .1 setlinewidth
    0 d_footer_h translate
    /cw d_output_w cols div def
    1 1 cols 1 sub {
      cw mul 0 moveto
      0 d_output_h rlineto stroke
    } for
  grestore
} def

% Column borders.
/column_borders {
  gsave
    .1 setlinewidth
    0 d_footer_h moveto
    0 d_output_h rlineto
    d_output_w 0 rlineto
    0 d_output_h neg rlineto
    closepath stroke
  grestore
} def

% Do the actual underlay drawing
/draw_underlay {
  ul_style 0 eq {
    ul_str true charpath stroke
  } {
    ul_str show
  } ifelse
} def

% Underlay
/underlay {	% - -> -
  gsave
    0 d_page_h translate
    d_page_h neg d_page_w atan rotate

    ul_gray setgray
    ul_font setfont
    /dw d_page_h dup mul d_page_w dup mul add sqrt def
    ul_str stringwidth pop dw exch sub 2 div ul_h_ptsize -2 div moveto
    draw_underlay
  grestore
} def

/user_underlay {	% - -> -
  gsave
    ul_x ul_y translate
    ul_angle rotate
    ul_gray setgray
    ul_font setfont
    0 0 ul_h_ptsize 2 div sub moveto
    draw_underlay
  grestore
} def

% Page prefeed
/page_prefeed {		% bool -> -
  statusdict /prefeed known {
    statusdict exch /prefeed exch put
  } {
    pop
  } ifelse
} def

% Wrapped line markers
/wrapped_line_mark {	% x y charwith charheight type -> -
  /type exch def
  /h exch def
  /w exch def
  /y exch def
  /x exch def

  type 2 eq {
    % Black boxes (like TeX does)
    gsave
      0 setlinewidth
      x w 4 div add y M
      0 h rlineto w 2 div 0 rlineto 0 h neg rlineto
      closepath fill
    grestore
  } {
    type 3 eq {
      % Small arrows
      gsave
        .2 setlinewidth
        x w 2 div add y h 2 div add M
        w 4 div 0 rlineto
        x w 4 div add y lineto stroke

        x w 4 div add w 8 div add y h 4 div add M
        x w 4 div add y lineto
	w 4 div h 8 div rlineto stroke
      grestore
    } {
      % do nothing
    } ifelse
  } ifelse
} def

% EPSF import.

/BeginEPSF {
  /b4_Inc_state save def    		% Save state for cleanup
  /dict_count countdictstack def	% Count objects on dict stack
  /op_count count 1 sub def		% Count objects on operand stack
  userdict begin
  /showpage { } def
  0 setgray 0 setlinecap
  1 setlinewidth 0 setlinejoin
  10 setmiterlimit [ ] 0 setdash newpath
  /languagelevel where {
    pop languagelevel
    1 ne {
      false setstrokeadjust false setoverprint
    } if
  } if
} bind def

/EndEPSF {
  count op_count sub { pos } repeat	% Clean up stacks
  countdictstack dict_count sub { end } repeat
  b4_Inc_state restore
} bind def

% Check PostScript language level.
/languagelevel where {
  pop /gs_languagelevel languagelevel def
} {
  /gs_languagelevel 1 def
} ifelse
%%EndResource
%%BeginResource: procset Enscript-Encoding-88591 1.6 6
/encoding_vector [
/.notdef      	/.notdef      	/.notdef      	/.notdef      	
/.notdef      	/.notdef      	/.notdef      	/.notdef      	
/.notdef      	/.notdef      	/.notdef      	/.notdef      	
/.notdef      	/.notdef      	/.notdef      	/.notdef      	
/.notdef      	/.notdef      	/.notdef      	/.notdef      	
/.notdef      	/.notdef      	/.notdef      	/.notdef      	
/.notdef      	/.notdef      	/.notdef      	/.notdef      	
/.notdef      	/.notdef      	/.notdef      	/.notdef      	
/space        	/exclam       	/quotedbl     	/numbersign   	
/dollar       	/percent      	/ampersand    	/quoteright   	
/parenleft    	/parenright   	/asterisk     	/plus         	
/comma        	/hyphen       	/period       	/slash        	
/zero         	/one          	/two          	/three        	
/four         	/five         	/six          	/seven        	
/eight        	/nine         	/colon        	/semicolon    	
/less         	/equal        	/greater      	/question     	
/at           	/A            	/B            	/C            	
/D            	/E            	/F            	/G            	
/H            	/I            	/J            	/K            	
/L            	/M            	/N            	/O            	
/P            	/Q            	/R            	/S            	
/T            	/U            	/V            	/W            	
/X            	/Y            	/Z            	/bracketleft  	
/backslash    	/bracketright 	/asciicircum  	/underscore   	
/quoteleft    	/a            	/b            	/c            	
/d            	/e            	/f            	/g            	
/h            	/i            	/j            	/k            	
/l            	/m            	/n            	/o            	
/p            	/q            	/r            	/s            	
/t            	/u            	/v            	/w            	
/x            	/y            	/z            	/braceleft    	
/bar          	/braceright   	/tilde        	/.notdef      	
/.notdef      	/.notdef      	/.notdef      	/.notdef      	
/.notdef      	/.notdef      	/.notdef      	/.notdef      	
/.notdef      	/.notdef      	/.notdef      	/.notdef      	
/.notdef      	/.notdef      	/.notdef      	/.notdef      	
/.notdef      	/.notdef      	/.notdef      	/.notdef      	
/.notdef      	/.notdef      	/.notdef      	/.notdef      	
/.notdef      	/.notdef      	/.notdef      	/.notdef      	
/.notdef      	/.notdef      	/.notdef      	/.notdef      	
/space        	/exclamdown   	/cent         	/sterling     	
/currency     	/yen          	/brokenbar    	/section      	
/dieresis     	/copyright    	/ordfeminine  	/guillemotleft	
/logicalnot   	/hyphen       	/registered   	/macron       	
/degree       	/plusminus    	/twosuperior  	/threesuperior	
/acute        	/mu           	/paragraph    	/bullet       	
/cedilla      	/onesuperior  	/ordmasculine 	/guillemotright	
/onequarter   	/onehalf      	/threequarters	/questiondown 	
/Agrave       	/Aacute       	/Acircumflex  	/Atilde       	
/Adieresis    	/Aring        	/AE           	/Ccedilla     	
/Egrave       	/Eacute       	/Ecircumflex  	/Edieresis    	
/Igrave       	/Iacute       	/Icircumflex  	/Idieresis    	
/Eth          	/Ntilde       	/Ograve       	/Oacute       	
/Ocircumflex  	/Otilde       	/Odieresis    	/multiply     	
/Oslash       	/Ugrave       	/Uacute       	/Ucircumflex  	
/Udieresis    	/Yacute       	/Thorn        	/germandbls   	
/agrave       	/aacute       	/acircumflex  	/atilde       	
/adieresis    	/aring        	/ae           	/ccedilla     	
/egrave       	/eacute       	/ecircumflex  	/edieresis    	
/igrave       	/iacute       	/icircumflex  	/idieresis    	
/eth          	/ntilde       	/ograve       	/oacute       	
/ocircumflex  	/otilde       	/odieresis    	/divide       	
/oslash       	/ugrave       	/uacute       	/ucircumflex  	
/udieresis    	/yacute       	/thorn        	/ydieresis    	
] def
%%EndResource
%%EndProlog
%%BeginSetup
%%IncludeResource: font Courier-Bold
/HFpt_w 10 def
/HFpt_h 10 def
/Courier-Bold /HF-gs-font MF
/HF /HF-gs-font findfont [HFpt_w 0 0 HFpt_h 0 0] makefont def
/Courier-Bold /F-gs-font MF
/F-gs-font 11 11 SF
/#copies 1 def
% Pagedevice definitions:
gs_languagelevel 1 gt {
  <<
    /PageSize [612 792] 
  >> setpagedevice
} if
%%BeginResource: procset Enscript-Header-enscript-mycolor 1.6 6
%%IncludeResource: font Times-Bold
%%IncludeResource: font Times-Roman

% Fonts.
/Times-Bold /HeaderFont-Bold MF
/HeaderDateF /HeaderFont-Bold findfont 12 scalefont def

/Times-Roman /HeaderFont-Times MF
/HeaderHDRF /HeaderFont-Times findfont 14 scalefont def

/HeaderPageNumF /Helvetica-Bold findfont 28.8 scalefont def
/HeaderPageCountF /Helvetica-Bold findfont 18 scalefont def

/do_header {	% print enscript header
  gsave
    d_header_x d_header_y translate

    /dhw d_header_w 4 sub def

    /linecolor {0 0 0 setrgbcolor} bind def  % line color
    /txcolor   {0 0 0 setrgbcolor} bind def  % text color
    /fncolor   {0 0 0 setrgbcolor} bind def  % filename line color

    .5 setlinewidth

    % line across bottom of the header area
    linecolor
    0 0 moveto dhw 0 lineto

    % side boxes
    /sbw d_header_h 2 mul def	% side box width

    % left side box
    0 0 sbw d_header_h Box
    linecolor
    stroke

    % date/time in left box
    txcolor
    HeaderDateF setfont
    moddatestr dup stringwidth pop sbw exch sub 2 div
    d_header_h 2 div 2 add moveto show
    modtimestr dup stringwidth pop sbw exch sub 2 div
    d_header_h 5 div moveto show

    % right side box
    dhw sbw sub 0 sbw d_header_h Box
    linecolor
    stroke

    % get width of pagecount
    HeaderPageCountF setfont
    pagecountstr stringwidth pop

    txcolor
    HeaderPageNumF setfont
    pagenumstr stringwidth pop add  % add to width of pagecount
    sbw exch sub 2 div dhw sbw sub add
    d_header_h .2 mul moveto

    pagenumstr show

    HeaderPageCountF setfont
    pagecountstr show

    % filename
    fncolor
    HeaderHDRF setfont
    dhw fname stringwidth pop sub 2 div d_header_h 8 div moveto
    fname show

    % user supplied header string.
    user_header_p {
      /h d_header_h 8 div 5 mul def

      % HACK around a bug in enscript 1.6.0:
      % for some reason this is getting set to "(null)" and
      %
      user_header_center_str (\(null\)) eq {
        /user_header_center_str () def
      } if

      % Implement strict enscript compatibility.
      user_header_center_str () eq user_header_right_str () eq and {
        dhw user_header_left_str stringwidth pop sub 2 div
        h moveto user_header_left_str show
      } {
        sbw 5 add h moveto user_header_left_str show

        dhw user_header_center_str stringwidth pop sub 2 div
        h moveto user_header_center_str show

	dhw sbw sub 5 sub user_header_right_str stringwidth pop
	sub h moveto user_header_right_str show
      } ifelse
    } if

  grestore
} bind def
%%EndResource
/d_page_w 536 def
/d_page_h 744 def
/d_header_x 0 def
/d_header_y 708 def
/d_header_w 536 def
/d_header_h 36 def
/d_footer_x 0 def
/d_footer_y 0 def
/d_footer_w 536 def
/d_footer_h 0 def
/d_output_w 536 def
/d_output_h 708 def
/cols 1 def
%%EndSetup
%%Page: (1) 1
%%BeginPageSetup
_S
38 24 translate
/pagenum 1 def
/fname (README) def
/fdir (.) def
/ftail (README) def
% User defined strings:
/pagenumstr (1) def
/moddatestr (04/19/16) def
/pagecountstr (/1) def
/modtimestr (15:58:09) def
/user_header_p true def
/user_header_left_str ($cmps104a-wm/Examples/e04.calculator/) def
/user_header_center_str () def
/user_header_right_str () def
/user_footer_p false def
%%EndPageSetup
column_borders
do_header
32.4 694 M (1:) s
52.2 694 M
(# $Id: README,v 1.3 2016-04-19 15:49:35-07 - - $) s
32.4 682 M (2:) s
32.4 670 M (3:) s
52.2 670 M
(This is a simple calculator with some arithmetic operations) s
32.4 658 M (4:) s
52.2 658 M
(having the usual priorities and a symbol table.) s
32.4 646 M (5:) s
32.4 634 M (6:) s
52.2 634 M
(It is an example of the use of bison and flex used to) s
32.4 622 M (7:) s
52.2 622 M
(generate an output file from test data.  It also illustrates) s
32.4 610 M (8:) s
52.2 610 M
(how to use a Makefile with bison, flex, and gcc.) s
32.4 598 M (9:) s
25.8 586 M (10:) s
52.2 586 M
(This example is definitely overkill on the user of many) s
25.8 574 M (11:) s
52.2 574 M
(files.  However, each of the files present illustrate a part) s
25.8 562 M (12:) s
52.2 562 M
(of a compiler and their counterpart in your project will be) s
25.8 550 M (13:) s
52.2 550 M
(much larger.) s
25.8 538 M (14:) s
_R
S
%%Page: (1) 2
%%BeginPageSetup
_S
38 24 translate
/pagenum 1 def
/fname (extern.h) def
/fdir (.) def
/ftail (extern.h) def
% User defined strings:
/pagenumstr (1) def
/moddatestr (04/19/16) def
/pagecountstr (/1) def
/modtimestr (15:58:09) def
/user_header_p true def
/user_header_left_str ($cmps104a-wm/Examples/e04.calculator/) def
/user_header_center_str () def
/user_header_right_str () def
/user_footer_p false def
%%EndPageSetup
column_borders
do_header
32.4 694 M (1:) s
52.2 694 M
(// $Id: extern.h,v 1.4 2014-10-24 16:32:04-07 - - $) s
32.4 682 M (2:) s
32.4 670 M (3:) s
52.2 670 M
(#ifndef __EXTERN_H__) s
32.4 658 M (4:) s
52.2 658 M
(#define __EXTERN_H__) s
32.4 646 M (5:) s
32.4 634 M (6:) s
52.2 634 M
(//) s
32.4 622 M (7:) s
52.2 622 M
(// Include some things from STL.) s
32.4 610 M (8:) s
52.2 610 M
(//) s
32.4 598 M (9:) s
52.2 598 M
(#include <map>) s
25.8 586 M (10:) s
52.2 586 M
(#include <string>) s
25.8 574 M (11:) s
52.2 574 M
(using namespace std;) s
25.8 562 M (12:) s
25.8 550 M (13:) s
52.2 550 M
(//) s
25.8 538 M (14:) s
52.2 538 M
(// A more compact representation should be used for efficiency.) s
25.8 526 M (15:) s
52.2 526 M
(// No token ever has both a symbol and a value.) s
25.8 514 M (16:) s
52.2 514 M
(//) s
25.8 502 M (17:) s
52.2 502 M
(struct yystype {) s
25.8 490 M (18:) s
52.2 490 M
(   string sym;) s
25.8 478 M (19:) s
52.2 478 M
(   double val;) s
25.8 466 M (20:) s
52.2 466 M
(};) s
25.8 454 M (21:) s
52.2 454 M
(extern map<string,double> symtab;) s
25.8 442 M (22:) s
25.8 430 M (23:) s
52.2 430 M
(//) s
25.8 418 M (24:) s
52.2 418 M
(// External symbols.) s
25.8 406 M (25:) s
52.2 406 M
(//) s
25.8 394 M (26:) s
52.2 394 M
(extern int yy_flex_debug;) s
25.8 382 M (27:) s
52.2 382 M
(extern int yydebug;) s
25.8 370 M (28:) s
52.2 370 M
(void error \(const string& message, const string& data\);) s
25.8 358 M (29:) s
52.2 358 M
(void yyerror \(const string& message\);) s
25.8 346 M (30:) s
52.2 346 M
(int yylex \(void\);) s
25.8 334 M (31:) s
52.2 334 M
(int yyparse \(void\);) s
25.8 322 M (32:) s
52.2 322 M
(double sym_get \(const string& symbol\);) s
25.8 310 M (33:) s
52.2 310 M
(double sym_put \(const string& symbol, double value\);) s
25.8 298 M (34:) s
25.8 286 M (35:) s
52.2 286 M
(//) s
25.8 274 M (36:) s
52.2 274 M
(// Include parser-generated symbols.) s
25.8 262 M (37:) s
52.2 262 M
(//) s
25.8 250 M (38:) s
52.2 250 M
(#define YYSTYPE yystype) s
25.8 238 M (39:) s
52.2 238 M
(#include "parser.h") s
25.8 226 M (40:) s
25.8 214 M (41:) s
52.2 214 M
(#endif) s
25.8 202 M (42:) s
_R
S
%%Page: (1) 3
%%BeginPageSetup
_S
38 24 translate
/pagenum 1 def
/fname (parser.h) def
/fdir (.) def
/ftail (parser.h) def
% User defined strings:
/pagenumstr (1) def
/moddatestr (04/19/16) def
/pagecountstr (/2) def
/modtimestr (15:58:18) def
/user_header_p true def
/user_header_left_str ($cmps104a-wm/Examples/e04.calculator/) def
/user_header_center_str () def
/user_header_right_str () def
/user_footer_p false def
%%EndPageSetup
column_borders
do_header
32.4 694 M (1:) s
52.2 694 M
(/* A Bison parser, made by GNU Bison 2.7.  */) s
32.4 682 M (2:) s
32.4 670 M (3:) s
52.2 670 M
(/* Bison interface for Yacc-like parsers in C) s
32.4 658 M (4:) s
52.2 658 M
(   ) s
32.4 646 M (5:) s
52.2 646 M
(      Copyright \(C\) 1984, 1989-1990, 2000-2012 Free Software Foundation,) s
5 634 M
( Inc.) s
32.4 622 M (6:) s
52.2 622 M
(   ) s
32.4 610 M (7:) s
52.2 610 M
(   This program is free software: you can redistribute it and/or modify) s
32.4 598 M (8:) s
52.2 598 M
(   it under the terms of the GNU General Public License as published by) s
32.4 586 M (9:) s
52.2 586 M
(   the Free Software Foundation, either version 3 of the License, or) s
25.8 574 M (10:) s
52.2 574 M
(   \(at your option\) any later version.) s
25.8 562 M (11:) s
52.2 562 M
(   ) s
25.8 550 M (12:) s
52.2 550 M
(   This program is distributed in the hope that it will be useful,) s
25.8 538 M (13:) s
52.2 538 M
(   but WITHOUT ANY WARRANTY; without even the implied warranty of) s
25.8 526 M (14:) s
52.2 526 M
(   MERCHANTABILITY or FITNESS FOR A PARTICULAR PURPOSE.  See the) s
25.8 514 M (15:) s
52.2 514 M
(   GNU General Public License for more details.) s
25.8 502 M (16:) s
52.2 502 M
(   ) s
25.8 490 M (17:) s
52.2 490 M
(   You should have received a copy of the GNU General Public License) s
25.8 478 M (18:) s
52.2 478 M
(   along with this program.  If not, see <http://www.gnu.org/licenses/>.) s
5 466 M
(  */) s
25.8 454 M (19:) s
25.8 442 M (20:) s
52.2 442 M
(/* As a special exception, you may create a larger work that contains) s
25.8 430 M (21:) s
52.2 430 M
(   part or all of the Bison parser skeleton and distribute that work) s
25.8 418 M (22:) s
52.2 418 M
(   under terms of your choice, so long as that work isn't itself a) s
25.8 406 M (23:) s
52.2 406 M
(   parser generator using the skeleton or a modified version thereof) s
25.8 394 M (24:) s
52.2 394 M
(   as a parser skeleton.  Alternatively, if you modify or redistribute) s
25.8 382 M (25:) s
52.2 382 M
(   the parser skeleton itself, you may \(at your option\) remove this) s
25.8 370 M (26:) s
52.2 370 M
(   special exception, which will cause the skeleton and the resulting) s
25.8 358 M (27:) s
52.2 358 M
(   Bison output files to be licensed under the GNU General Public) s
25.8 346 M (28:) s
52.2 346 M
(   License without this special exception.) s
25.8 334 M (29:) s
52.2 334 M
(   ) s
25.8 322 M (30:) s
52.2 322 M
(   This special exception was added by the Free Software Foundation in) s
25.8 310 M (31:) s
52.2 310 M
(   version 2.2 of Bison.  */) s
25.8 298 M (32:) s
25.8 286 M (33:) s
52.2 286 M
(#ifndef YY_YY_PARSER_HH_INCLUDED) s
25.8 274 M (34:) s
52.2 274 M
(# define YY_YY_PARSER_HH_INCLUDED) s
25.8 262 M (35:) s
52.2 262 M
(/* Enabling traces.  */) s
25.8 250 M (36:) s
52.2 250 M
(#ifndef YYDEBUG) s
25.8 238 M (37:) s
52.2 238 M
(# define YYDEBUG 1) s
25.8 226 M (38:) s
52.2 226 M
(#endif) s
25.8 214 M (39:) s
52.2 214 M
(#if YYDEBUG) s
25.8 202 M (40:) s
52.2 202 M
(extern int yydebug;) s
25.8 190 M (41:) s
52.2 190 M
(#endif) s
25.8 178 M (42:) s
25.8 166 M (43:) s
52.2 166 M
(/* Tokens.  */) s
25.8 154 M (44:) s
52.2 154 M
(#ifndef YYTOKENTYPE) s
25.8 142 M (45:) s
52.2 142 M
(# define YYTOKENTYPE) s
25.8 130 M (46:) s
52.2 130 M
(   /* Put the tokens into the symbol table, so that GDB and other debugg) s
5 118 M
(ers) s
25.8 106 M (47:) s
52.2 106 M
(      know about them.  */) s
25.8 94 M (48:) s
52.2 94 M
(   enum yytokentype {) s
25.8 82 M (49:) s
52.2 82 M
(     IDENT = 258,) s
25.8 70 M (50:) s
52.2 70 M
(     NUMBER = 259,) s
25.8 58 M (51:) s
52.2 58 M
(     UNARY = 260) s
25.8 46 M (52:) s
52.2 46 M
(   };) s
25.8 34 M (53:) s
52.2 34 M
(#endif) s
25.8 22 M (54:) s
25.8 10 M (55:) s
_R
S
%%Page: (2) 4
%%BeginPageSetup
_S
38 24 translate
/pagenum 2 def
/fname (parser.h) def
/fdir (.) def
/ftail (parser.h) def
% User defined strings:
/pagenumstr (2) def
/moddatestr (04/19/16) def
/pagecountstr (/2) def
/modtimestr (15:58:18) def
/user_header_p true def
/user_header_left_str ($cmps104a-wm/Examples/e04.calculator/) def
/user_header_center_str () def
/user_header_right_str () def
/user_footer_p false def
%%EndPageSetup
column_borders
do_header
25.8 694 M (56:) s
52.2 694 M
(#if ! defined YYSTYPE && ! defined YYSTYPE_IS_DECLARED) s
25.8 682 M (57:) s
52.2 682 M
(typedef int YYSTYPE;) s
25.8 670 M (58:) s
52.2 670 M
(# define YYSTYPE_IS_TRIVIAL 1) s
25.8 658 M (59:) s
52.2 658 M
(# define yystype YYSTYPE /* obsolescent; will be withdrawn */) s
25.8 646 M (60:) s
52.2 646 M
(# define YYSTYPE_IS_DECLARED 1) s
25.8 634 M (61:) s
52.2 634 M
(#endif) s
25.8 622 M (62:) s
25.8 610 M (63:) s
52.2 610 M
(extern YYSTYPE yylval;) s
25.8 598 M (64:) s
25.8 586 M (65:) s
52.2 586 M
(#ifdef YYPARSE_PARAM) s
25.8 574 M (66:) s
52.2 574 M
(#if defined __STDC__ || defined __cplusplus) s
25.8 562 M (67:) s
52.2 562 M
(int yyparse \(void *YYPARSE_PARAM\);) s
25.8 550 M (68:) s
52.2 550 M
(#else) s
25.8 538 M (69:) s
52.2 538 M
(int yyparse \(\);) s
25.8 526 M (70:) s
52.2 526 M
(#endif) s
25.8 514 M (71:) s
52.2 514 M
(#else /* ! YYPARSE_PARAM */) s
25.8 502 M (72:) s
52.2 502 M
(#if defined __STDC__ || defined __cplusplus) s
25.8 490 M (73:) s
52.2 490 M
(int yyparse \(void\);) s
25.8 478 M (74:) s
52.2 478 M
(#else) s
25.8 466 M (75:) s
52.2 466 M
(int yyparse \(\);) s
25.8 454 M (76:) s
52.2 454 M
(#endif) s
25.8 442 M (77:) s
52.2 442 M
(#endif /* ! YYPARSE_PARAM */) s
25.8 430 M (78:) s
25.8 418 M (79:) s
52.2 418 M
(#endif /* !YY_YY_PARSER_HH_INCLUDED  */) s
_R
S
%%Page: (1) 5
%%BeginPageSetup
_S
38 24 translate
/pagenum 1 def
/fname (main.cc) def
/fdir (.) def
/ftail (main.cc) def
% User defined strings:
/pagenumstr (1) def
/moddatestr (04/19/16) def
/pagecountstr (/1) def
/modtimestr (15:58:09) def
/user_header_p true def
/user_header_left_str ($cmps104a-wm/Examples/e04.calculator/) def
/user_header_center_str () def
/user_header_right_str () def
/user_footer_p false def
%%EndPageSetup
column_borders
do_header
32.4 694 M (1:) s
52.2 694 M
(// $Id: main.cc,v 1.9 2016-04-19 15:57:14-07 - - $) s
32.4 682 M (2:) s
32.4 670 M (3:) s
32.4 658 M (4:) s
52.2 658 M
(#include <stdio.h>) s
32.4 646 M (5:) s
52.2 646 M
(#include <string.h>) s
32.4 634 M (6:) s
52.2 634 M
(#include <unistd.h>) s
32.4 622 M (7:) s
32.4 610 M (8:) s
52.2 610 M
(#include "extern.h") s
32.4 598 M (9:) s
25.8 586 M (10:) s
52.2 586 M
(map<string,double> symtab; ) s
25.8 574 M (11:) s
52.2 574 M
(const double NAN = 0.0 / 0.0;) s
25.8 562 M (12:) s
25.8 550 M (13:) s
52.2 550 M
(double sym_get \(const string& symbol\) { ) s
25.8 538 M (14:) s
52.2 538 M
(   auto entry = symtab.find \(symbol\);) s
25.8 526 M (15:) s
52.2 526 M
(   if \(entry != symtab.end\(\)\) return entry->second;) s
25.8 514 M (16:) s
52.2 514 M
(   error \("variable is uninitialized", symbol\);) s
25.8 502 M (17:) s
52.2 502 M
(   return NAN;) s
25.8 490 M (18:) s
52.2 490 M
(}) s
25.8 478 M (19:) s
25.8 466 M (20:) s
52.2 466 M
(double sym_put \(const string& symbol, double value\) {) s
25.8 454 M (21:) s
52.2 454 M
(   symtab.emplace \(symbol, value\);) s
25.8 442 M (22:) s
52.2 442 M
(   return value;) s
25.8 430 M (23:) s
52.2 430 M
(}) s
25.8 418 M (24:) s
25.8 406 M (25:) s
52.2 406 M
(void sym_dump\(\) {) s
25.8 394 M (26:) s
52.2 394 M
(   for \(const auto& sym: symtab\) {) s
25.8 382 M (27:) s
52.2 382 M
(      printf \("symtab[%s] = %.10g\\n",) s
25.8 370 M (28:) s
52.2 370 M
(              sym.first.c_str\(\), sym.second\);) s
25.8 358 M (29:) s
52.2 358 M
(   }) s
25.8 346 M (30:) s
52.2 346 M
(}) s
25.8 334 M (31:) s
25.8 322 M (32:) s
52.2 322 M
(void scan_options \(int argc, char** argv\) {) s
25.8 310 M (33:) s
52.2 310 M
(   yy_flex_debug = yydebug = 0;) s
25.8 298 M (34:) s
52.2 298 M
(   for\(;;\) {) s
25.8 286 M (35:) s
52.2 286 M
(      int option = getopt \(argc, argv, "ly"\);) s
25.8 274 M (36:) s
52.2 274 M
(      switch \(option\) {) s
25.8 262 M (37:) s
52.2 262 M
(         case EOF: return;) s
25.8 250 M (38:) s
52.2 250 M
(         case 'l': yy_flex_debug = 1; break;) s
25.8 238 M (39:) s
52.2 238 M
(         case 'y': yydebug       = 1; break;) s
25.8 226 M (40:) s
52.2 226 M
(      }) s
25.8 214 M (41:) s
52.2 214 M
(   }) s
25.8 202 M (42:) s
52.2 202 M
(}) s
25.8 190 M (43:) s
25.8 178 M (44:) s
52.2 178 M
(void error \(const string& message, const string& data\) {) s
25.8 166 M (45:) s
52.2 166 M
(   yyerror \(message + " \(" + data + "\)"\);) s
25.8 154 M (46:) s
52.2 154 M
(}) s
25.8 142 M (47:) s
25.8 130 M (48:) s
52.2 130 M
(void yyerror \(const string& message\) {) s
25.8 118 M (49:) s
52.2 118 M
(   printf \(" ... [[%s]]\\n", message.c_str\(\)\);) s
25.8 106 M (50:) s
52.2 106 M
(}) s
25.8 94 M (51:) s
25.8 82 M (52:) s
52.2 82 M
(int main \(int argc, char** argv\) {) s
25.8 70 M (53:) s
52.2 70 M
(   scan_options \(argc, argv\);) s
25.8 58 M (54:) s
52.2 58 M
(   int parse_rc = yyparse \(\);) s
25.8 46 M (55:) s
52.2 46 M
(   sym_dump\(\);) s
25.8 34 M (56:) s
52.2 34 M
(   return parse_rc;) s
25.8 22 M (57:) s
52.2 22 M
(}) s
25.8 10 M (58:) s
_R
S
%%Page: (1) 6
%%BeginPageSetup
_S
38 24 translate
/pagenum 1 def
/fname (scanner.l) def
/fdir (.) def
/ftail (scanner.l) def
% User defined strings:
/pagenumstr (1) def
/moddatestr (04/19/16) def
/pagecountstr (/1) def
/modtimestr (15:58:09) def
/user_header_p true def
/user_header_left_str ($cmps104a-wm/Examples/e04.calculator/) def
/user_header_center_str () def
/user_header_right_str () def
/user_footer_p false def
%%EndPageSetup
column_borders
do_header
32.4 694 M (1:) s
32.4 682 M (2:) s
52.2 682 M
(%{) s
32.4 670 M (3:) s
52.2 670 M
(// $Id: scanner.l,v 1.5 2014-10-24 16:37:47-07 - - $) s
32.4 658 M (4:) s
32.4 646 M (5:) s
52.2 646 M
(#include <ctype.h>) s
32.4 634 M (6:) s
52.2 634 M
(#include <stdlib.h>) s
32.4 622 M (7:) s
32.4 610 M (8:) s
52.2 610 M
(#include "extern.h") s
32.4 598 M (9:) s
25.8 586 M (10:) s
52.2 586 M
(%}) s
25.8 574 M (11:) s
25.8 562 M (12:) s
52.2 562 M
(%option 8bit) s
25.8 550 M (13:) s
52.2 550 M
(%option debug) s
25.8 538 M (14:) s
52.2 538 M
(%option ecs) s
25.8 526 M (15:) s
52.2 526 M
(%option nodefault) s
25.8 514 M (16:) s
52.2 514 M
(%option noinput) s
25.8 502 M (17:) s
52.2 502 M
(%option nounput) s
25.8 490 M (18:) s
52.2 490 M
(%option noyywrap) s
25.8 478 M (19:) s
52.2 478 M
(%option warn) s
25.8 466 M (20:) s
25.8 454 M (21:) s
52.2 454 M
(DIGIT     [0-9]) s
25.8 442 M (22:) s
52.2 442 M
(FRACTION  \({DIGIT}+\\.?{DIGIT}*|\\.{DIGIT}+\)) s
25.8 430 M (23:) s
52.2 430 M
(EXPONENT  \([Ee][+-]?{DIGIT}+\)) s
25.8 418 M (24:) s
52.2 418 M
(NUMBER    {FRACTION}\({EXPONENT}\)?) s
25.8 406 M (25:) s
52.2 406 M
(ERRORNUM  {FRACTION}[Ee][+-]?) s
25.8 394 M (26:) s
52.2 394 M
(LETTER    [a-zA-Z_]) s
25.8 382 M (27:) s
52.2 382 M
(IDENT     {LETTER}\({LETTER}|{DIGIT}\)*) s
25.8 370 M (28:) s
25.8 358 M (29:) s
52.2 358 M
(%% ) s
25.8 346 M (30:) s
25.8 334 M (31:) s
52.2 334 M
({IDENT}     { ECHO; yylval.sym = yytext; return IDENT; }) s
25.8 322 M (32:) s
52.2 322 M
({NUMBER}    { ECHO; yylval.val = atof \(yytext\); return NUMBER; }) s
25.8 310 M (33:) s
52.2 310 M
("\("         { ECHO; return '\('; }) s
25.8 298 M (34:) s
52.2 298 M
("\)"         { ECHO; return '\)'; }) s
25.8 286 M (35:) s
52.2 286 M
("+"         { ECHO; return '+'; }) s
25.8 274 M (36:) s
52.2 274 M
("-"         { ECHO; return '-'; }) s
25.8 262 M (37:) s
52.2 262 M
("/"         { ECHO; return '/'; }) s
25.8 250 M (38:) s
52.2 250 M
("*"         { ECHO; return '*'; }) s
25.8 238 M (39:) s
52.2 238 M
("="         { ECHO; return '='; }) s
25.8 226 M (40:) s
52.2 226 M
(\\n          { ECHO; return '\\n'; }) s
25.8 214 M (41:) s
52.2 214 M
([\\t ]+      { ECHO; }) s
25.8 202 M (42:) s
52.2 202 M
("#".*       { ECHO; }) s
25.8 190 M (43:) s
52.2 190 M
({ERRORNUM}  { ECHO; error \("invalid numeric value", yytext\); }) s
25.8 178 M (44:) s
52.2 178 M
(.           { ECHO; error \("invalid input character", yytext\); }) s
25.8 166 M (45:) s
25.8 154 M (46:) s
52.2 154 M
(%%) s
25.8 142 M (47:) s
_R
S
%%Page: (1) 7
%%BeginPageSetup
_S
38 24 translate
/pagenum 1 def
/fname (parser.y) def
/fdir (.) def
/ftail (parser.y) def
% User defined strings:
/pagenumstr (1) def
/moddatestr (04/19/16) def
/pagecountstr (/1) def
/modtimestr (15:58:09) def
/user_header_p true def
/user_header_left_str ($cmps104a-wm/Examples/e04.calculator/) def
/user_header_center_str () def
/user_header_right_str () def
/user_footer_p false def
%%EndPageSetup
column_borders
do_header
32.4 694 M (1:) s
52.2 694 M
(%{) s
32.4 682 M (2:) s
52.2 682 M
(// $Id: parser.y,v 1.3 2014-10-24 16:32:04-07 - - $) s
32.4 670 M (3:) s
32.4 658 M (4:) s
52.2 658 M
(#include "extern.h") s
32.4 646 M (5:) s
32.4 634 M (6:) s
52.2 634 M
(#define YYDEBUG 1) s
32.4 622 M (7:) s
52.2 622 M
(#define YYERROR_VERBOSE 1) s
32.4 610 M (8:) s
32.4 598 M (9:) s
52.2 598 M
(%}) s
25.8 586 M (10:) s
25.8 574 M (11:) s
52.2 574 M
(%debug) s
25.8 562 M (12:) s
52.2 562 M
(%defines) s
25.8 550 M (13:) s
52.2 550 M
(%token-table) s
25.8 538 M (14:) s
52.2 538 M
(%verbose) s
25.8 526 M (15:) s
25.8 514 M (16:) s
52.2 514 M
(%token  IDENT NUMBER) s
25.8 502 M (17:) s
52.2 502 M
(%right  '=') s
25.8 490 M (18:) s
52.2 490 M
(%left   '+' '-') s
25.8 478 M (19:) s
52.2 478 M
(%left   '*' '/') s
25.8 466 M (20:) s
52.2 466 M
(%right  UNARY) s
25.8 454 M (21:) s
25.8 442 M (22:) s
52.2 442 M
(%start  stmts) s
25.8 430 M (23:) s
25.8 418 M (24:) s
52.2 418 M
(%%) s
25.8 406 M (25:) s
25.8 394 M (26:) s
52.2 394 M
(stmts : stmts stmt           { }) s
25.8 382 M (27:) s
52.2 382 M
(      |                      { }) s
25.8 370 M (28:) s
52.2 370 M
(      ;) s
25.8 358 M (29:) s
25.8 346 M (30:) s
52.2 346 M
(stmt  : expr '\\n'            { printf \("****EXPR==%.10g\\n", $1.val\); }) s
25.8 334 M (31:) s
52.2 334 M
(      | error '\\n'           { printf \("****ERROR #%d\\n", yynerrs\); }) s
25.8 322 M (32:) s
52.2 322 M
(      | '\\n'                 { printf \("\\n"\); }) s
25.8 310 M (33:) s
52.2 310 M
(      ;) s
25.8 298 M (34:) s
25.8 286 M (35:) s
52.2 286 M
(expr  : IDENT '=' expr       { $$.val = sym_put \($1.sym, $3.val\); }) s
25.8 274 M (36:) s
52.2 274 M
(      | expr '+' expr        { $$.val = $1.val + $3.val; }) s
25.8 262 M (37:) s
52.2 262 M
(      | expr '-' expr        { $$.val = $1.val - $3.val; }) s
25.8 250 M (38:) s
52.2 250 M
(      | expr '*' expr        { $$.val = $1.val * $3.val; }) s
25.8 238 M (39:) s
52.2 238 M
(      | expr '/' expr        { $$.val = $1.val / $3.val; }) s
25.8 226 M (40:) s
52.2 226 M
(      | '+' expr %prec UNARY { $$.val = + $2.val; }) s
25.8 214 M (41:) s
52.2 214 M
(      | '-' expr %prec UNARY { $$.val = - $2.val; }) s
25.8 202 M (42:) s
52.2 202 M
(      | '\(' expr '\)'         { $$.val = $2.val; }) s
25.8 190 M (43:) s
52.2 190 M
(      | NUMBER               { $$.val = $1.val; }) s
25.8 178 M (44:) s
52.2 178 M
(      | IDENT                { $$.val = sym_get \($1.sym\); }) s
25.8 166 M (45:) s
52.2 166 M
(      ; ) s
25.8 154 M (46:) s
25.8 142 M (47:) s
52.2 142 M
(%%) s
25.8 130 M (48:) s
_R
S
%%Page: (1) 8
%%BeginPageSetup
_S
38 24 translate
/pagenum 1 def
/fname (Makefile) def
/fdir (.) def
/ftail (Makefile) def
% User defined strings:
/pagenumstr (1) def
/moddatestr (04/19/16) def
/pagecountstr (/2) def
/modtimestr (15:58:09) def
/user_header_p true def
/user_header_left_str ($cmps104a-wm/Examples/e04.calculator/) def
/user_header_center_str () def
/user_header_right_str () def
/user_footer_p false def
%%EndPageSetup
column_borders
do_header
32.4 694 M (1:) s
52.2 694 M
(# $Id: Makefile,v 1.14 2016-04-19 15:58:09-07 - - $) s
32.4 682 M (2:) s
32.4 670 M (3:) s
52.2 670 M
(GPP      = g++ -g -O0 -Wall -Wextra -std=gnu++0x) s
32.4 658 M (4:) s
52.2 658 M
(GPPNW    = g++ -g -O0 -std=gnu++0x) s
32.4 646 M (5:) s
52.2 646 M
(GPPDEP   = g++ -MM) s
32.4 634 M (6:) s
32.4 622 M (7:) s
52.2 622 M
(TXTS    = README) s
32.4 610 M (8:) s
52.2 610 M
(HDRS    = extern.h) s
32.4 598 M (9:) s
52.2 598 M
(SRCS    = main.cc scanner.l parser.y) s
25.8 586 M (10:) s
52.2 586 M
(GENS    = parser.h scanner.cc parser.cc) s
25.8 574 M (11:) s
52.2 574 M
(OBJS    = main.o scanner.o parser.o) s
25.8 562 M (12:) s
52.2 562 M
(BINS    = calculator) s
25.8 550 M (13:) s
52.2 550 M
(LOGS    = scanner.log parser.log) s
25.8 538 M (14:) s
25.8 526 M (15:) s
52.2 526 M
(OUT1    = test1.out test1.err) s
25.8 514 M (16:) s
52.2 514 M
(OUT2    = test2.out test2.err) s
25.8 502 M (17:) s
52.2 502 M
(OUTS    = ${OUT1} ${OUT2}) s
25.8 490 M (18:) s
52.2 490 M
(IN1     = test1.in ${OUT1}) s
25.8 478 M (19:) s
52.2 478 M
(IN2     = test2.in ${OUT2}) s
25.8 466 M (20:) s
52.2 466 M
(INS     = ${IN1} ${IN2}) s
25.8 454 M (21:) s
52.2 454 M
(OUTPUT  = test1.lis test2.lis) s
25.8 442 M (22:) s
52.2 442 M
(LISTS   = Listing.pdf Listing.ps) s
25.8 430 M (23:) s
52.2 430 M
(MAKES   = Makefile Makefile.deps) s
25.8 418 M (24:) s
52.2 418 M
(DEPS    = ${filter %.cc, ${SRCS} ${GENS}}) s
25.8 406 M (25:) s
52.2 406 M
(NOINCL  = ${filter ci clean spotless, ${MAKECMDGOALS}}) s
25.8 394 M (26:) s
25.8 382 M (27:) s
52.2 382 M
(LISTING = ${TXTS} ${HDRS} parser.h ${SRCS} ${MAKES} ${OUTPUT}) s
25.8 370 M (28:) s
52.2 370 M
(CLEAN   = core ${OBJS} ${GENS} ${LOGS} ${OUTS} ${LISTS}) s
25.8 358 M (29:) s
52.2 358 M
(RCS     = ${TXTS} ${HDRS} ${SRCS} Makefile test*.in) s
25.8 346 M (30:) s
25.8 334 M (31:) s
52.2 334 M
(define MORE) s
25.8 322 M (32:) s
52.2 322 M
(MORE\(\) { \\) s
25.8 310 M (33:) s
52.2 310 M
(   LIS=$$1; shift; \\) s
25.8 298 M (34:) s
52.2 298 M
(   for i in $$*; do \\) s
25.8 286 M (35:) s
52.2 286 M
(      echo ::::::::::::::::; \\) s
25.8 274 M (36:) s
52.2 274 M
(      echo $$i; \\) s
25.8 262 M (37:) s
52.2 262 M
(      echo ::::::::::::::::; \\) s
25.8 250 M (38:) s
52.2 250 M
(      cat -nv $$i; \\) s
25.8 238 M (39:) s
52.2 238 M
(   done >$$LIS; \\) s
25.8 226 M (40:) s
52.2 226 M
(}) s
25.8 214 M (41:) s
52.2 214 M
(endef) s
25.8 202 M (42:) s
_R
S
%%Page: (2) 9
%%BeginPageSetup
_S
38 24 translate
/pagenum 2 def
/fname (Makefile) def
/fdir (.) def
/ftail (Makefile) def
% User defined strings:
/pagenumstr (2) def
/moddatestr (04/19/16) def
/pagecountstr (/2) def
/modtimestr (15:58:09) def
/user_header_p true def
/user_header_left_str ($cmps104a-wm/Examples/e04.calculator/) def
/user_header_center_str () def
/user_header_right_str () def
/user_footer_p false def
%%EndPageSetup
column_borders
do_header
25.8 694 M (43:) s
25.8 682 M (44:) s
52.2 682 M
(all: ${BINS}) s
25.8 670 M (45:) s
25.8 658 M (46:) s
52.2 658 M
(clean:) s
25.8 646 M (47:) s
52.2 646 M
(        - rm ${CLEAN}) s
25.8 634 M (48:) s
25.8 622 M (49:) s
52.2 622 M
(spotless: clean) s
25.8 610 M (50:) s
52.2 610 M
(        - rm ${GENS} ${BINS} Makefile.deps ${OUTPUT}) s
25.8 598 M (51:) s
25.8 586 M (52:) s
52.2 586 M
(deps:) s
25.8 574 M (53:) s
52.2 574 M
(        - rm Makefile.deps) s
25.8 562 M (54:) s
52.2 562 M
(        ${MAKE} --no-print-directory Makefile.deps) s
25.8 550 M (55:) s
25.8 538 M (56:) s
52.2 538 M
(out: ${OUTS}) s
25.8 526 M (57:) s
25.8 514 M (58:) s
52.2 514 M
(lis: out) s
25.8 502 M (59:) s
52.2 502 M
(        mkpspdf Listing.ps ${LISTING}) s
25.8 490 M (60:) s
25.8 478 M (61:) s
52.2 478 M
(calculator: ${OBJS}) s
25.8 466 M (62:) s
52.2 466 M
(        ${GPP} -o calculator ${OBJS}) s
25.8 454 M (63:) s
25.8 442 M (64:) s
52.2 442 M
(%.o: %.cc) s
25.8 430 M (65:) s
52.2 430 M
(        ${GPP} ${CFLAGS} $< -c) s
25.8 418 M (66:) s
25.8 406 M (67:) s
52.2 406 M
(scanner.o scanner.cc: scanner.l) s
25.8 394 M (68:) s
52.2 394 M
(        flex -oscanner.cc scanner.l) s
25.8 382 M (69:) s
52.2 382 M
(        ${GPP} -Wno-sign-compare -c scanner.cc) s
25.8 370 M (70:) s
25.8 358 M (71:) s
52.2 358 M
(parser.cc parser.h: parser.y) s
25.8 346 M (72:) s
52.2 346 M
(        bison -o parser.cc parser.y) s
25.8 334 M (73:) s
52.2 334 M
(        - mv parser.hh parser.h) s
25.8 322 M (74:) s
52.2 322 M
(        - mv parser.output parser.log) s
25.8 310 M (75:) s
25.8 298 M (76:) s
52.2 298 M
(test1.lis test1.out test1.err: ${BINS} test1.in) s
25.8 286 M (77:) s
52.2 286 M
(        ./calculator <test1.in >test1.out 2>test1.err) s
25.8 274 M (78:) s
52.2 274 M
(        ${MORE}; MORE test1.lis test1.in test1.out test1.err) s
25.8 262 M (79:) s
25.8 250 M (80:) s
52.2 250 M
(test2.lis test2.out test2.err: ${BINS} test2.in) s
25.8 238 M (81:) s
52.2 238 M
(        ./calculator -ly <test2.in >test2.out 2>test2.err) s
25.8 226 M (82:) s
52.2 226 M
(        ${MORE}; MORE test2.lis test2.in test2.out test2.err) s
25.8 214 M (83:) s
25.8 202 M (84:) s
52.2 202 M
(ci : ${RCS}) s
25.8 190 M (85:) s
52.2 190 M
(        cid + ${RCS}) s
25.8 178 M (86:) s
25.8 166 M (87:) s
52.2 166 M
(Makefile.deps: Makefile ${GENS}) s
25.8 154 M (88:) s
52.2 154 M
(        ${GPP} -MM ${DEPS} >Makefile.deps) s
25.8 142 M (89:) s
25.8 130 M (90:) s
52.2 130 M
(again :) s
25.8 118 M (91:) s
52.2 118 M
(        ${MAKE} --no-print-directory spotless ci all lis) s
25.8 106 M (92:) s
25.8 94 M (93:) s
52.2 94 M
(ifeq \(${NOINCL},\)) s
25.8 82 M (94:) s
52.2 82 M
(include Makefile.deps) s
25.8 70 M (95:) s
52.2 70 M
(endif) s
25.8 58 M (96:) s
_R
S
%%Page: (1) 10
%%BeginPageSetup
_S
38 24 translate
/pagenum 1 def
/fname (Makefile.deps) def
/fdir (.) def
/ftail (Makefile.deps) def
% User defined strings:
/pagenumstr (1) def
/moddatestr (04/19/16) def
/pagecountstr (/1) def
/modtimestr (15:58:19) def
/user_header_p true def
/user_header_left_str ($cmps104a-wm/Examples/e04.calculator/) def
/user_header_center_str () def
/user_header_right_str () def
/user_footer_p false def
%%EndPageSetup
column_borders
do_header
32.4 694 M (1:) s
52.2 694 M
(main.o: main.cc extern.h parser.h) s
32.4 682 M (2:) s
52.2 682 M
(scanner.o: scanner.cc extern.h parser.h) s
32.4 670 M (3:) s
52.2 670 M
(parser.o: parser.cc extern.h parser.h) s
_R
S
%%Page: (1) 11
%%BeginPageSetup
_S
38 24 translate
/pagenum 1 def
/fname (test1.lis) def
/fdir (.) def
/ftail (test1.lis) def
% User defined strings:
/pagenumstr (1) def
/moddatestr (04/19/16) def
/pagecountstr (/1) def
/modtimestr (15:58:29) def
/user_header_p true def
/user_header_left_str ($cmps104a-wm/Examples/e04.calculator/) def
/user_header_center_str () def
/user_header_right_str () def
/user_footer_p false def
%%EndPageSetup
column_borders
do_header
32.4 694 M (1:) s
52.2 694 M
(::::::::::::::::) s
32.4 682 M (2:) s
52.2 682 M
(test1.in) s
32.4 670 M (3:) s
52.2 670 M
(::::::::::::::::) s
32.4 658 M (4:) s
52.2 658 M
(     1  # $Id: test1.in,v 1.2 2013-09-05 20:24:24-07 - - $) s
32.4 646 M (5:) s
52.2 646 M
(     2  alpha=3+4*5-6) s
32.4 634 M (6:) s
52.2 634 M
(     3  crap out) s
32.4 622 M (7:) s
52.2 622 M
(     4  beta=alpha/3) s
32.4 610 M (8:) s
52.2 610 M
(     5  gamma=beta*10-alpha*33) s
32.4 598 M (9:) s
52.2 598 M
(     6  64e *98) s
25.8 586 M (10:) s
52.2 586 M
(     7  infinity=1e1000*1e1000) s
25.8 574 M (11:) s
52.2 574 M
(     8  nan=infinity/infinity) s
25.8 562 M (12:) s
52.2 562 M
(     9  foo*bar) s
25.8 550 M (13:) s
52.2 550 M
(::::::::::::::::) s
25.8 538 M (14:) s
52.2 538 M
(test1.out) s
25.8 526 M (15:) s
52.2 526 M
(::::::::::::::::) s
25.8 514 M (16:) s
52.2 514 M
(     1  # $Id: test1.in,v 1.2 2013-09-05 20:24:24-07 - - $) s
25.8 502 M (17:) s
52.2 502 M
(     2  ) s
25.8 490 M (18:) s
52.2 490 M
(     3  alpha=3+4*5-6) s
25.8 478 M (19:) s
52.2 478 M
(     4  ****EXPR==17) s
25.8 466 M (20:) s
52.2 466 M
(     5  crap out ... [[variable is uninitialized \(crap\)]]) s
25.8 454 M (21:) s
52.2 454 M
(     6   ... [[syntax error, unexpected IDENT]]) s
25.8 442 M (22:) s
52.2 442 M
(     7  ) s
25.8 430 M (23:) s
52.2 430 M
(     8  ****ERROR #1) s
25.8 418 M (24:) s
52.2 418 M
(     9  beta=alpha/3) s
25.8 406 M (25:) s
52.2 406 M
(    10  ****EXPR==5.666666667) s
25.8 394 M (26:) s
52.2 394 M
(    11  gamma=beta*10-alpha*33) s
25.8 382 M (27:) s
52.2 382 M
(    12  ****EXPR==-504.3333333) s
25.8 370 M (28:) s
52.2 370 M
(    13  64e ... [[invalid numeric value \(64e\)]]) s
25.8 358 M (29:) s
52.2 358 M
(    14   * ... [[syntax error, unexpected '*']]) s
25.8 346 M (30:) s
52.2 346 M
(    15  98) s
25.8 334 M (31:) s
52.2 334 M
(    16  ****ERROR #2) s
25.8 322 M (32:) s
52.2 322 M
(    17  infinity=1e1000*1e1000) s
25.8 310 M (33:) s
52.2 310 M
(    18  ****EXPR==inf) s
25.8 298 M (34:) s
52.2 298 M
(    19  nan=infinity/infinity) s
25.8 286 M (35:) s
52.2 286 M
(    20  ****EXPR==-nan) s
25.8 274 M (36:) s
52.2 274 M
(    21  foo* ... [[variable is uninitialized \(foo\)]]) s
25.8 262 M (37:) s
52.2 262 M
(    22  bar) s
25.8 250 M (38:) s
52.2 250 M
(    23   ... [[variable is uninitialized \(bar\)]]) s
25.8 238 M (39:) s
52.2 238 M
(    24  ****EXPR==-nan) s
25.8 226 M (40:) s
52.2 226 M
(    25  symtab[alpha] = 17) s
25.8 214 M (41:) s
52.2 214 M
(    26  symtab[beta] = 5.666666667) s
25.8 202 M (42:) s
52.2 202 M
(    27  symtab[gamma] = -504.3333333) s
25.8 190 M (43:) s
52.2 190 M
(    28  symtab[infinity] = inf) s
25.8 178 M (44:) s
52.2 178 M
(    29  symtab[nan] = -nan) s
25.8 166 M (45:) s
52.2 166 M
(::::::::::::::::) s
25.8 154 M (46:) s
52.2 154 M
(test1.err) s
25.8 142 M (47:) s
52.2 142 M
(::::::::::::::::) s
_R
S
%%Page: (1) 12
%%BeginPageSetup
_S
38 24 translate
/pagenum 1 def
/fname (test2.lis) def
/fdir (.) def
/ftail (test2.lis) def
% User defined strings:
/pagenumstr (1) def
/moddatestr (04/19/16) def
/pagecountstr (/4) def
/modtimestr (15:58:29) def
/user_header_p true def
/user_header_left_str ($cmps104a-wm/Examples/e04.calculator/) def
/user_header_center_str () def
/user_header_right_str () def
/user_footer_p false def
%%EndPageSetup
column_borders
do_header
32.4 694 M (1:) s
52.2 694 M
(::::::::::::::::) s
32.4 682 M (2:) s
52.2 682 M
(test2.in) s
32.4 670 M (3:) s
52.2 670 M
(::::::::::::::::) s
32.4 658 M (4:) s
52.2 658 M
(     1  # $Id: test2.in,v 1.1 2013-09-05 19:21:46-07 - - $) s
32.4 646 M (5:) s
52.2 646 M
(     2  a=3+4*5-6) s
32.4 634 M (6:) s
52.2 634 M
(     3  b=a/3) s
32.4 622 M (7:) s
52.2 622 M
(::::::::::::::::) s
32.4 610 M (8:) s
52.2 610 M
(test2.out) s
32.4 598 M (9:) s
52.2 598 M
(::::::::::::::::) s
25.8 586 M (10:) s
52.2 586 M
(     1  # $Id: test2.in,v 1.1 2013-09-05 19:21:46-07 - - $) s
25.8 574 M (11:) s
52.2 574 M
(     2  ) s
25.8 562 M (12:) s
52.2 562 M
(     3  a=3+4*5-6) s
25.8 550 M (13:) s
52.2 550 M
(     4  ****EXPR==17) s
25.8 538 M (14:) s
52.2 538 M
(     5  b=a/3) s
25.8 526 M (15:) s
52.2 526 M
(     6  ****EXPR==5.666666667) s
25.8 514 M (16:) s
52.2 514 M
(     7  symtab[a] = 17) s
25.8 502 M (17:) s
52.2 502 M
(     8  symtab[b] = 5.666666667) s
25.8 490 M (18:) s
52.2 490 M
(::::::::::::::::) s
25.8 478 M (19:) s
52.2 478 M
(test2.err) s
25.8 466 M (20:) s
52.2 466 M
(::::::::::::::::) s
25.8 454 M (21:) s
52.2 454 M
(     1  Starting parse) s
25.8 442 M (22:) s
52.2 442 M
(     2  Entering state 0) s
25.8 430 M (23:) s
52.2 430 M
(     3  Reducing stack by rule 2 \(line 27\):) s
25.8 418 M (24:) s
52.2 418 M
(     4  -> $$ = nterm stmts \(\)) s
25.8 406 M (25:) s
52.2 406 M
(     5  Stack now 0) s
25.8 394 M (26:) s
52.2 394 M
(     6  Entering state 1) s
25.8 382 M (27:) s
52.2 382 M
(     7  Reading a token: --\(end of buffer or a NUL\)) s
25.8 370 M (28:) s
52.2 370 M
(     8  --accepting rule at line 42 \("# $Id: test2.in,v 1.1 2013-09-05 1) s
5 358 M
(9:21:46-07 - - $"\)) s
25.8 346 M (29:) s
52.2 346 M
(     9  --accepting rule at line 40 \(") s
25.8 334 M (30:) s
52.2 334 M
(    10  "\)) s
25.8 322 M (31:) s
52.2 322 M
(    11  Next token is token '\\n' \(\)) s
25.8 310 M (32:) s
52.2 310 M
(    12  Shifting token '\\n' \(\)) s
25.8 298 M (33:) s
52.2 298 M
(    13  Entering state 8) s
25.8 286 M (34:) s
52.2 286 M
(    14  Reducing stack by rule 5 \(line 32\):) s
25.8 274 M (35:) s
52.2 274 M
(    15     $1 = token '\\n' \(\)) s
25.8 262 M (36:) s
52.2 262 M
(    16  -> $$ = nterm stmt \(\)) s
25.8 250 M (37:) s
52.2 250 M
(    17  Stack now 0 1) s
25.8 238 M (38:) s
52.2 238 M
(    18  Entering state 10) s
25.8 226 M (39:) s
52.2 226 M
(    19  Reducing stack by rule 1 \(line 26\):) s
25.8 214 M (40:) s
52.2 214 M
(    20     $1 = nterm stmts \(\)) s
25.8 202 M (41:) s
52.2 202 M
(    21     $2 = nterm stmt \(\)) s
25.8 190 M (42:) s
52.2 190 M
(    22  -> $$ = nterm stmts \(\)) s
25.8 178 M (43:) s
52.2 178 M
(    23  Stack now 0) s
25.8 166 M (44:) s
52.2 166 M
(    24  Entering state 1) s
25.8 154 M (45:) s
52.2 154 M
(    25  Reading a token: --accepting rule at line 31 \("a"\)) s
25.8 142 M (46:) s
52.2 142 M
(    26  Next token is token IDENT \(\)) s
25.8 130 M (47:) s
52.2 130 M
(    27  Shifting token IDENT \(\)) s
25.8 118 M (48:) s
52.2 118 M
(    28  Entering state 4) s
25.8 106 M (49:) s
52.2 106 M
(    29  Reading a token: --accepting rule at line 39 \("="\)) s
25.8 94 M (50:) s
52.2 94 M
(    30  Next token is token '=' \(\)) s
25.8 82 M (51:) s
52.2 82 M
(    31  Shifting token '=' \(\)) s
25.8 70 M (52:) s
52.2 70 M
(    32  Entering state 13) s
25.8 58 M (53:) s
52.2 58 M
(    33  Reading a token: --accepting rule at line 32 \("3"\)) s
25.8 46 M (54:) s
52.2 46 M
(    34  Next token is token NUMBER \(\)) s
25.8 34 M (55:) s
52.2 34 M
(    35  Shifting token NUMBER \(\)) s
25.8 22 M (56:) s
52.2 22 M
(    36  Entering state 5) s
25.8 10 M (57:) s
52.2 10 M
(    37  Reducing stack by rule 14 \(line 43\):) s
_R
S
%%Page: (2) 13
%%BeginPageSetup
_S
38 24 translate
/pagenum 2 def
/fname (test2.lis) def
/fdir (.) def
/ftail (test2.lis) def
% User defined strings:
/pagenumstr (2) def
/moddatestr (04/19/16) def
/pagecountstr (/4) def
/modtimestr (15:58:29) def
/user_header_p true def
/user_header_left_str ($cmps104a-wm/Examples/e04.calculator/) def
/user_header_center_str () def
/user_header_right_str () def
/user_footer_p false def
%%EndPageSetup
column_borders
do_header
25.8 694 M (58:) s
52.2 694 M
(    38     $1 = token NUMBER \(\)) s
25.8 682 M (59:) s
52.2 682 M
(    39  -> $$ = nterm expr \(\)) s
25.8 670 M (60:) s
52.2 670 M
(    40  Stack now 0 1 4 13) s
25.8 658 M (61:) s
52.2 658 M
(    41  Entering state 22) s
25.8 646 M (62:) s
52.2 646 M
(    42  Reading a token: --accepting rule at line 35 \("+"\)) s
25.8 634 M (63:) s
52.2 634 M
(    43  Next token is token '+' \(\)) s
25.8 622 M (64:) s
52.2 622 M
(    44  Shifting token '+' \(\)) s
25.8 610 M (65:) s
52.2 610 M
(    45  Entering state 17) s
25.8 598 M (66:) s
52.2 598 M
(    46  Reading a token: --accepting rule at line 32 \("4"\)) s
25.8 586 M (67:) s
52.2 586 M
(    47  Next token is token NUMBER \(\)) s
25.8 574 M (68:) s
52.2 574 M
(    48  Shifting token NUMBER \(\)) s
25.8 562 M (69:) s
52.2 562 M
(    49  Entering state 5) s
25.8 550 M (70:) s
52.2 550 M
(    50  Reducing stack by rule 14 \(line 43\):) s
25.8 538 M (71:) s
52.2 538 M
(    51     $1 = token NUMBER \(\)) s
25.8 526 M (72:) s
52.2 526 M
(    52  -> $$ = nterm expr \(\)) s
25.8 514 M (73:) s
52.2 514 M
(    53  Stack now 0 1 4 13 22 17) s
25.8 502 M (74:) s
52.2 502 M
(    54  Entering state 24) s
25.8 490 M (75:) s
52.2 490 M
(    55  Reading a token: --accepting rule at line 38 \("*"\)) s
25.8 478 M (76:) s
52.2 478 M
(    56  Next token is token '*' \(\)) s
25.8 466 M (77:) s
52.2 466 M
(    57  Shifting token '*' \(\)) s
25.8 454 M (78:) s
52.2 454 M
(    58  Entering state 19) s
25.8 442 M (79:) s
52.2 442 M
(    59  Reading a token: --accepting rule at line 32 \("5"\)) s
25.8 430 M (80:) s
52.2 430 M
(    60  Next token is token NUMBER \(\)) s
25.8 418 M (81:) s
52.2 418 M
(    61  Shifting token NUMBER \(\)) s
25.8 406 M (82:) s
52.2 406 M
(    62  Entering state 5) s
25.8 394 M (83:) s
52.2 394 M
(    63  Reducing stack by rule 14 \(line 43\):) s
25.8 382 M (84:) s
52.2 382 M
(    64     $1 = token NUMBER \(\)) s
25.8 370 M (85:) s
52.2 370 M
(    65  -> $$ = nterm expr \(\)) s
25.8 358 M (86:) s
52.2 358 M
(    66  Stack now 0 1 4 13 22 17 24 19) s
25.8 346 M (87:) s
52.2 346 M
(    67  Entering state 26) s
25.8 334 M (88:) s
52.2 334 M
(    68  Reducing stack by rule 9 \(line 38\):) s
25.8 322 M (89:) s
52.2 322 M
(    69     $1 = nterm expr \(\)) s
25.8 310 M (90:) s
52.2 310 M
(    70     $2 = token '*' \(\)) s
25.8 298 M (91:) s
52.2 298 M
(    71     $3 = nterm expr \(\)) s
25.8 286 M (92:) s
52.2 286 M
(    72  -> $$ = nterm expr \(\)) s
25.8 274 M (93:) s
52.2 274 M
(    73  Stack now 0 1 4 13 22 17) s
25.8 262 M (94:) s
52.2 262 M
(    74  Entering state 24) s
25.8 250 M (95:) s
52.2 250 M
(    75  Reading a token: --accepting rule at line 36 \("-"\)) s
25.8 238 M (96:) s
52.2 238 M
(    76  Next token is token '-' \(\)) s
25.8 226 M (97:) s
52.2 226 M
(    77  Reducing stack by rule 7 \(line 36\):) s
25.8 214 M (98:) s
52.2 214 M
(    78     $1 = nterm expr \(\)) s
25.8 202 M (99:) s
52.2 202 M
(    79     $2 = token '+' \(\)) s
19.2 190 M (100:) s
52.2 190 M
(    80     $3 = nterm expr \(\)) s
19.2 178 M (101:) s
52.2 178 M
(    81  -> $$ = nterm expr \(\)) s
19.2 166 M (102:) s
52.2 166 M
(    82  Stack now 0 1 4 13) s
19.2 154 M (103:) s
52.2 154 M
(    83  Entering state 22) s
19.2 142 M (104:) s
52.2 142 M
(    84  Next token is token '-' \(\)) s
19.2 130 M (105:) s
52.2 130 M
(    85  Shifting token '-' \(\)) s
19.2 118 M (106:) s
52.2 118 M
(    86  Entering state 18) s
19.2 106 M (107:) s
52.2 106 M
(    87  Reading a token: --accepting rule at line 32 \("6"\)) s
19.2 94 M (108:) s
52.2 94 M
(    88  Next token is token NUMBER \(\)) s
19.2 82 M (109:) s
52.2 82 M
(    89  Shifting token NUMBER \(\)) s
19.2 70 M (110:) s
52.2 70 M
(    90  Entering state 5) s
19.2 58 M (111:) s
52.2 58 M
(    91  Reducing stack by rule 14 \(line 43\):) s
19.2 46 M (112:) s
52.2 46 M
(    92     $1 = token NUMBER \(\)) s
19.2 34 M (113:) s
52.2 34 M
(    93  -> $$ = nterm expr \(\)) s
19.2 22 M (114:) s
52.2 22 M
(    94  Stack now 0 1 4 13 22 18) s
19.2 10 M (115:) s
52.2 10 M
(    95  Entering state 25) s
_R
S
%%Page: (3) 14
%%BeginPageSetup
_S
38 24 translate
/pagenum 3 def
/fname (test2.lis) def
/fdir (.) def
/ftail (test2.lis) def
% User defined strings:
/pagenumstr (3) def
/moddatestr (04/19/16) def
/pagecountstr (/4) def
/modtimestr (15:58:29) def
/user_header_p true def
/user_header_left_str ($cmps104a-wm/Examples/e04.calculator/) def
/user_header_center_str () def
/user_header_right_str () def
/user_footer_p false def
%%EndPageSetup
column_borders
do_header
19.2 694 M (116:) s
52.2 694 M
(    96  Reading a token: --accepting rule at line 40 \(") s
19.2 682 M (117:) s
52.2 682 M
(    97  "\)) s
19.2 670 M (118:) s
52.2 670 M
(    98  Next token is token '\\n' \(\)) s
19.2 658 M (119:) s
52.2 658 M
(    99  Reducing stack by rule 8 \(line 37\):) s
19.2 646 M (120:) s
52.2 646 M
(   100     $1 = nterm expr \(\)) s
19.2 634 M (121:) s
52.2 634 M
(   101     $2 = token '-' \(\)) s
19.2 622 M (122:) s
52.2 622 M
(   102     $3 = nterm expr \(\)) s
19.2 610 M (123:) s
52.2 610 M
(   103  -> $$ = nterm expr \(\)) s
19.2 598 M (124:) s
52.2 598 M
(   104  Stack now 0 1 4 13) s
19.2 586 M (125:) s
52.2 586 M
(   105  Entering state 22) s
19.2 574 M (126:) s
52.2 574 M
(   106  Next token is token '\\n' \(\)) s
19.2 562 M (127:) s
52.2 562 M
(   107  Reducing stack by rule 6 \(line 35\):) s
19.2 550 M (128:) s
52.2 550 M
(   108     $1 = token IDENT \(\)) s
19.2 538 M (129:) s
52.2 538 M
(   109     $2 = token '=' \(\)) s
19.2 526 M (130:) s
52.2 526 M
(   110     $3 = nterm expr \(\)) s
19.2 514 M (131:) s
52.2 514 M
(   111  -> $$ = nterm expr \(\)) s
19.2 502 M (132:) s
52.2 502 M
(   112  Stack now 0 1) s
19.2 490 M (133:) s
52.2 490 M
(   113  Entering state 11) s
19.2 478 M (134:) s
52.2 478 M
(   114  Next token is token '\\n' \(\)) s
19.2 466 M (135:) s
52.2 466 M
(   115  Shifting token '\\n' \(\)) s
19.2 454 M (136:) s
52.2 454 M
(   116  Entering state 21) s
19.2 442 M (137:) s
52.2 442 M
(   117  Reducing stack by rule 3 \(line 30\):) s
19.2 430 M (138:) s
52.2 430 M
(   118     $1 = nterm expr \(\)) s
19.2 418 M (139:) s
52.2 418 M
(   119     $2 = token '\\n' \(\)) s
19.2 406 M (140:) s
52.2 406 M
(   120  -> $$ = nterm stmt \(\)) s
19.2 394 M (141:) s
52.2 394 M
(   121  Stack now 0 1) s
19.2 382 M (142:) s
52.2 382 M
(   122  Entering state 10) s
19.2 370 M (143:) s
52.2 370 M
(   123  Reducing stack by rule 1 \(line 26\):) s
19.2 358 M (144:) s
52.2 358 M
(   124     $1 = nterm stmts \(\)) s
19.2 346 M (145:) s
52.2 346 M
(   125     $2 = nterm stmt \(\)) s
19.2 334 M (146:) s
52.2 334 M
(   126  -> $$ = nterm stmts \(\)) s
19.2 322 M (147:) s
52.2 322 M
(   127  Stack now 0) s
19.2 310 M (148:) s
52.2 310 M
(   128  Entering state 1) s
19.2 298 M (149:) s
52.2 298 M
(   129  Reading a token: --accepting rule at line 31 \("b"\)) s
19.2 286 M (150:) s
52.2 286 M
(   130  Next token is token IDENT \(\)) s
19.2 274 M (151:) s
52.2 274 M
(   131  Shifting token IDENT \(\)) s
19.2 262 M (152:) s
52.2 262 M
(   132  Entering state 4) s
19.2 250 M (153:) s
52.2 250 M
(   133  Reading a token: --accepting rule at line 39 \("="\)) s
19.2 238 M (154:) s
52.2 238 M
(   134  Next token is token '=' \(\)) s
19.2 226 M (155:) s
52.2 226 M
(   135  Shifting token '=' \(\)) s
19.2 214 M (156:) s
52.2 214 M
(   136  Entering state 13) s
19.2 202 M (157:) s
52.2 202 M
(   137  Reading a token: --accepting rule at line 31 \("a"\)) s
19.2 190 M (158:) s
52.2 190 M
(   138  Next token is token IDENT \(\)) s
19.2 178 M (159:) s
52.2 178 M
(   139  Shifting token IDENT \(\)) s
19.2 166 M (160:) s
52.2 166 M
(   140  Entering state 4) s
19.2 154 M (161:) s
52.2 154 M
(   141  Reading a token: --accepting rule at line 37 \("/"\)) s
19.2 142 M (162:) s
52.2 142 M
(   142  Next token is token '/' \(\)) s
19.2 130 M (163:) s
52.2 130 M
(   143  Reducing stack by rule 15 \(line 44\):) s
19.2 118 M (164:) s
52.2 118 M
(   144     $1 = token IDENT \(\)) s
19.2 106 M (165:) s
52.2 106 M
(   145  -> $$ = nterm expr \(\)) s
19.2 94 M (166:) s
52.2 94 M
(   146  Stack now 0 1 4 13) s
19.2 82 M (167:) s
52.2 82 M
(   147  Entering state 22) s
19.2 70 M (168:) s
52.2 70 M
(   148  Next token is token '/' \(\)) s
19.2 58 M (169:) s
52.2 58 M
(   149  Shifting token '/' \(\)) s
19.2 46 M (170:) s
52.2 46 M
(   150  Entering state 20) s
19.2 34 M (171:) s
52.2 34 M
(   151  Reading a token: --accepting rule at line 32 \("3"\)) s
19.2 22 M (172:) s
52.2 22 M
(   152  Next token is token NUMBER \(\)) s
19.2 10 M (173:) s
52.2 10 M
(   153  Shifting token NUMBER \(\)) s
_R
S
%%Page: (4) 15
%%BeginPageSetup
_S
38 24 translate
/pagenum 4 def
/fname (test2.lis) def
/fdir (.) def
/ftail (test2.lis) def
% User defined strings:
/pagenumstr (4) def
/moddatestr (04/19/16) def
/pagecountstr (/4) def
/modtimestr (15:58:29) def
/user_header_p true def
/user_header_left_str ($cmps104a-wm/Examples/e04.calculator/) def
/user_header_center_str () def
/user_header_right_str () def
/user_footer_p false def
%%EndPageSetup
column_borders
do_header
19.2 694 M (174:) s
52.2 694 M
(   154  Entering state 5) s
19.2 682 M (175:) s
52.2 682 M
(   155  Reducing stack by rule 14 \(line 43\):) s
19.2 670 M (176:) s
52.2 670 M
(   156     $1 = token NUMBER \(\)) s
19.2 658 M (177:) s
52.2 658 M
(   157  -> $$ = nterm expr \(\)) s
19.2 646 M (178:) s
52.2 646 M
(   158  Stack now 0 1 4 13 22 20) s
19.2 634 M (179:) s
52.2 634 M
(   159  Entering state 27) s
19.2 622 M (180:) s
52.2 622 M
(   160  Reducing stack by rule 10 \(line 39\):) s
19.2 610 M (181:) s
52.2 610 M
(   161     $1 = nterm expr \(\)) s
19.2 598 M (182:) s
52.2 598 M
(   162     $2 = token '/' \(\)) s
19.2 586 M (183:) s
52.2 586 M
(   163     $3 = nterm expr \(\)) s
19.2 574 M (184:) s
52.2 574 M
(   164  -> $$ = nterm expr \(\)) s
19.2 562 M (185:) s
52.2 562 M
(   165  Stack now 0 1 4 13) s
19.2 550 M (186:) s
52.2 550 M
(   166  Entering state 22) s
19.2 538 M (187:) s
52.2 538 M
(   167  Reading a token: --accepting rule at line 40 \(") s
19.2 526 M (188:) s
52.2 526 M
(   168  "\)) s
19.2 514 M (189:) s
52.2 514 M
(   169  Next token is token '\\n' \(\)) s
19.2 502 M (190:) s
52.2 502 M
(   170  Reducing stack by rule 6 \(line 35\):) s
19.2 490 M (191:) s
52.2 490 M
(   171     $1 = token IDENT \(\)) s
19.2 478 M (192:) s
52.2 478 M
(   172     $2 = token '=' \(\)) s
19.2 466 M (193:) s
52.2 466 M
(   173     $3 = nterm expr \(\)) s
19.2 454 M (194:) s
52.2 454 M
(   174  -> $$ = nterm expr \(\)) s
19.2 442 M (195:) s
52.2 442 M
(   175  Stack now 0 1) s
19.2 430 M (196:) s
52.2 430 M
(   176  Entering state 11) s
19.2 418 M (197:) s
52.2 418 M
(   177  Next token is token '\\n' \(\)) s
19.2 406 M (198:) s
52.2 406 M
(   178  Shifting token '\\n' \(\)) s
19.2 394 M (199:) s
52.2 394 M
(   179  Entering state 21) s
19.2 382 M (200:) s
52.2 382 M
(   180  Reducing stack by rule 3 \(line 30\):) s
19.2 370 M (201:) s
52.2 370 M
(   181     $1 = nterm expr \(\)) s
19.2 358 M (202:) s
52.2 358 M
(   182     $2 = token '\\n' \(\)) s
19.2 346 M (203:) s
52.2 346 M
(   183  -> $$ = nterm stmt \(\)) s
19.2 334 M (204:) s
52.2 334 M
(   184  Stack now 0 1) s
19.2 322 M (205:) s
52.2 322 M
(   185  Entering state 10) s
19.2 310 M (206:) s
52.2 310 M
(   186  Reducing stack by rule 1 \(line 26\):) s
19.2 298 M (207:) s
52.2 298 M
(   187     $1 = nterm stmts \(\)) s
19.2 286 M (208:) s
52.2 286 M
(   188     $2 = nterm stmt \(\)) s
19.2 274 M (209:) s
52.2 274 M
(   189  -> $$ = nterm stmts \(\)) s
19.2 262 M (210:) s
52.2 262 M
(   190  Stack now 0) s
19.2 250 M (211:) s
52.2 250 M
(   191  Entering state 1) s
19.2 238 M (212:) s
52.2 238 M
(   192  Reading a token: --\(end of buffer or a NUL\)) s
19.2 226 M (213:) s
52.2 226 M
(   193  --EOF \(start condition 0\)) s
19.2 214 M (214:) s
52.2 214 M
(   194  Now at end of input.) s
19.2 202 M (215:) s
52.2 202 M
(   195  Shifting token $end \(\)) s
19.2 190 M (216:) s
52.2 190 M
(   196  Entering state 2) s
19.2 178 M (217:) s
52.2 178 M
(   197  Stack now 0 1 2) s
19.2 166 M (218:) s
52.2 166 M
(   198  Cleanup: popping token $end \(\)) s
19.2 154 M (219:) s
52.2 154 M
(   199  Cleanup: popping nterm stmts \(\)) s
_R
S
%%Trailer
%%Pages: 15
%%DocumentNeededResources: font Times-Roman Courier-Bold Times-Bold 
%%EOF
